ISO-10303-21;
HEADER;
/* Generated by software containing ST-Developer
 * from STEP Tools, Inc. (www.steptools.com) 
 */

FILE_DESCRIPTION(
/* description */ (''),
/* implementation_level */ '2;1');

FILE_NAME(
/* name */ 
'C:/Users/mathur/Downloads/Capsule-Side Bracket v1_TopMod.step',
/* time_stamp */ '2020-01-09T17:34:10+01:00',
/* author */ (''),
/* organization */ (''),
/* preprocessor_version */ 'ST-DEVELOPER v18',
/* originating_system */ 'Autodesk Translation Framework v8.12.0.6',
/* authorisation */ '');

FILE_SCHEMA (('AUTOMOTIVE_DESIGN { 1 0 10303 214 3 1 1 }'));
ENDSEC;

DATA;
#10=MECHANICAL_DESIGN_GEOMETRIC_PRESENTATION_REPRESENTATION('',(#13),#1813);
#11=SHAPE_REPRESENTATION_RELATIONSHIP('SRR','None',#1820,#12);
#12=ADVANCED_BREP_SHAPE_REPRESENTATION('',(#14),#1812);
#13=STYLED_ITEM('',(#1829),#14);
#14=MANIFOLD_SOLID_BREP('Body1',#1097);
#15=FACE_BOUND('',#157,.T.);
#16=FACE_BOUND('',#158,.T.);
#17=FACE_BOUND('',#160,.T.);
#18=FACE_BOUND('',#161,.T.);
#19=FACE_BOUND('',#163,.T.);
#20=FACE_BOUND('',#164,.T.);
#21=FACE_BOUND('',#166,.T.);
#22=FACE_BOUND('',#167,.T.);
#23=FACE_BOUND('',#173,.T.);
#24=FACE_BOUND('',#175,.T.);
#25=FACE_BOUND('',#177,.T.);
#26=FACE_BOUND('',#179,.T.);
#27=FACE_BOUND('',#182,.T.);
#28=FACE_BOUND('',#184,.T.);
#29=FACE_BOUND('',#199,.T.);
#30=FACE_BOUND('',#201,.T.);
#31=FACE_BOUND('',#204,.T.);
#32=FACE_BOUND('',#206,.T.);
#33=FACE_BOUND('',#219,.T.);
#34=FACE_BOUND('',#220,.T.);
#35=FACE_BOUND('',#222,.T.);
#36=FACE_BOUND('',#223,.T.);
#37=CIRCLE('',#1114,1.99999999999999);
#38=CIRCLE('',#1116,2.);
#39=CIRCLE('',#1117,2.);
#40=CIRCLE('',#1120,3.5);
#41=CIRCLE('',#1121,3.5);
#42=CIRCLE('',#1124,2.);
#43=CIRCLE('',#1126,2.);
#44=CIRCLE('',#1127,2.);
#45=CIRCLE('',#1138,10.);
#46=CIRCLE('',#1139,4.);
#47=CIRCLE('',#1141,10.);
#48=CIRCLE('',#1142,4.);
#49=CIRCLE('',#1144,10.);
#50=CIRCLE('',#1145,4.);
#51=CIRCLE('',#1147,10.);
#52=CIRCLE('',#1148,4.);
#53=CIRCLE('',#1151,10.);
#54=CIRCLE('',#1152,4.);
#55=CIRCLE('',#1154,10.);
#56=CIRCLE('',#1155,4.);
#57=CIRCLE('',#1163,10.);
#58=CIRCLE('',#1166,10.);
#59=CIRCLE('',#1169,4.);
#60=CIRCLE('',#1172,4.);
#61=CIRCLE('',#1174,11.);
#62=CIRCLE('',#1175,6.);
#63=CIRCLE('',#1177,11.);
#64=CIRCLE('',#1178,6.);
#65=CIRCLE('',#1181,11.);
#66=CIRCLE('',#1182,6.);
#67=CIRCLE('',#1184,11.);
#68=CIRCLE('',#1185,6.);
#69=CIRCLE('',#1188,11.);
#70=CIRCLE('',#1191,11.);
#71=CIRCLE('',#1194,6.);
#72=CIRCLE('',#1196,6.);
#73=ELLIPSE('',#1113,2.00307914748144,1.99999999999999);
#74=ELLIPSE('',#1123,2.00307914748144,2.);
#75=CYLINDRICAL_SURFACE('',#1112,1.99999999999999);
#76=CYLINDRICAL_SURFACE('',#1115,2.);
#77=CYLINDRICAL_SURFACE('',#1119,3.5);
#78=CYLINDRICAL_SURFACE('',#1122,2.);
#79=CYLINDRICAL_SURFACE('',#1125,2.);
#80=CYLINDRICAL_SURFACE('',#1162,10.);
#81=CYLINDRICAL_SURFACE('',#1164,10.);
#82=CYLINDRICAL_SURFACE('',#1165,10.);
#83=CYLINDRICAL_SURFACE('',#1167,10.);
#84=CYLINDRICAL_SURFACE('',#1168,4.);
#85=CYLINDRICAL_SURFACE('',#1170,4.);
#86=CYLINDRICAL_SURFACE('',#1171,4.);
#87=CYLINDRICAL_SURFACE('',#1187,11.);
#88=CYLINDRICAL_SURFACE('',#1189,11.);
#89=CYLINDRICAL_SURFACE('',#1190,11.);
#90=CYLINDRICAL_SURFACE('',#1192,6.);
#91=CYLINDRICAL_SURFACE('',#1193,6.);
#92=CYLINDRICAL_SURFACE('',#1195,6.);
#93=CYLINDRICAL_SURFACE('',#1197,4.);
#94=FACE_OUTER_BOUND('',#148,.T.);
#95=FACE_OUTER_BOUND('',#149,.T.);
#96=FACE_OUTER_BOUND('',#150,.T.);
#97=FACE_OUTER_BOUND('',#151,.T.);
#98=FACE_OUTER_BOUND('',#152,.T.);
#99=FACE_OUTER_BOUND('',#153,.T.);
#100=FACE_OUTER_BOUND('',#154,.T.);
#101=FACE_OUTER_BOUND('',#155,.T.);
#102=FACE_OUTER_BOUND('',#156,.T.);
#103=FACE_OUTER_BOUND('',#159,.T.);
#104=FACE_OUTER_BOUND('',#162,.T.);
#105=FACE_OUTER_BOUND('',#165,.T.);
#106=FACE_OUTER_BOUND('',#168,.T.);
#107=FACE_OUTER_BOUND('',#169,.T.);
#108=FACE_OUTER_BOUND('',#170,.T.);
#109=FACE_OUTER_BOUND('',#171,.T.);
#110=FACE_OUTER_BOUND('',#172,.T.);
#111=FACE_OUTER_BOUND('',#174,.T.);
#112=FACE_OUTER_BOUND('',#176,.T.);
#113=FACE_OUTER_BOUND('',#178,.T.);
#114=FACE_OUTER_BOUND('',#180,.T.);
#115=FACE_OUTER_BOUND('',#181,.T.);
#116=FACE_OUTER_BOUND('',#183,.T.);
#117=FACE_OUTER_BOUND('',#185,.T.);
#118=FACE_OUTER_BOUND('',#186,.T.);
#119=FACE_OUTER_BOUND('',#187,.T.);
#120=FACE_OUTER_BOUND('',#188,.T.);
#121=FACE_OUTER_BOUND('',#189,.T.);
#122=FACE_OUTER_BOUND('',#190,.T.);
#123=FACE_OUTER_BOUND('',#191,.T.);
#124=FACE_OUTER_BOUND('',#192,.T.);
#125=FACE_OUTER_BOUND('',#193,.T.);
#126=FACE_OUTER_BOUND('',#194,.T.);
#127=FACE_OUTER_BOUND('',#195,.T.);
#128=FACE_OUTER_BOUND('',#196,.T.);
#129=FACE_OUTER_BOUND('',#197,.T.);
#130=FACE_OUTER_BOUND('',#198,.T.);
#131=FACE_OUTER_BOUND('',#200,.T.);
#132=FACE_OUTER_BOUND('',#202,.T.);
#133=FACE_OUTER_BOUND('',#203,.T.);
#134=FACE_OUTER_BOUND('',#205,.T.);
#135=FACE_OUTER_BOUND('',#207,.T.);
#136=FACE_OUTER_BOUND('',#208,.T.);
#137=FACE_OUTER_BOUND('',#209,.T.);
#138=FACE_OUTER_BOUND('',#210,.T.);
#139=FACE_OUTER_BOUND('',#211,.T.);
#140=FACE_OUTER_BOUND('',#212,.T.);
#141=FACE_OUTER_BOUND('',#213,.T.);
#142=FACE_OUTER_BOUND('',#214,.T.);
#143=FACE_OUTER_BOUND('',#215,.T.);
#144=FACE_OUTER_BOUND('',#216,.T.);
#145=FACE_OUTER_BOUND('',#217,.T.);
#146=FACE_OUTER_BOUND('',#218,.T.);
#147=FACE_OUTER_BOUND('',#221,.T.);
#148=EDGE_LOOP('',(#704,#705,#706,#707));
#149=EDGE_LOOP('',(#708,#709,#710,#711));
#150=EDGE_LOOP('',(#712,#713,#714,#715));
#151=EDGE_LOOP('',(#716,#717,#718,#719));
#152=EDGE_LOOP('',(#720,#721,#722,#723));
#153=EDGE_LOOP('',(#724,#725,#726,#727));
#154=EDGE_LOOP('',(#728,#729,#730,#731));
#155=EDGE_LOOP('',(#732,#733,#734,#735));
#156=EDGE_LOOP('',(#736,#737,#738,#739,#740));
#157=EDGE_LOOP('',(#741));
#158=EDGE_LOOP('',(#742));
#159=EDGE_LOOP('',(#743,#744,#745,#746));
#160=EDGE_LOOP('',(#747));
#161=EDGE_LOOP('',(#748));
#162=EDGE_LOOP('',(#749,#750,#751,#752,#753,#754,#755,#756,#757,#758,#759,
#760,#761,#762,#763,#764,#765,#766));
#163=EDGE_LOOP('',(#767));
#164=EDGE_LOOP('',(#768));
#165=EDGE_LOOP('',(#769,#770,#771,#772,#773,#774));
#166=EDGE_LOOP('',(#775));
#167=EDGE_LOOP('',(#776));
#168=EDGE_LOOP('',(#777,#778,#779,#780));
#169=EDGE_LOOP('',(#781,#782,#783,#784));
#170=EDGE_LOOP('',(#785,#786,#787,#788));
#171=EDGE_LOOP('',(#789,#790,#791,#792));
#172=EDGE_LOOP('',(#793,#794,#795,#796,#797));
#173=EDGE_LOOP('',(#798));
#174=EDGE_LOOP('',(#799,#800,#801,#802,#803));
#175=EDGE_LOOP('',(#804));
#176=EDGE_LOOP('',(#805,#806,#807,#808,#809));
#177=EDGE_LOOP('',(#810));
#178=EDGE_LOOP('',(#811,#812,#813,#814,#815));
#179=EDGE_LOOP('',(#816));
#180=EDGE_LOOP('',(#817,#818,#819,#820));
#181=EDGE_LOOP('',(#821,#822,#823,#824,#825));
#182=EDGE_LOOP('',(#826));
#183=EDGE_LOOP('',(#827,#828,#829,#830,#831));
#184=EDGE_LOOP('',(#832));
#185=EDGE_LOOP('',(#833,#834,#835,#836));
#186=EDGE_LOOP('',(#837,#838,#839,#840,#841,#842,#843,#844,#845,#846,#847,
#848,#849,#850,#851,#852));
#187=EDGE_LOOP('',(#853,#854,#855,#856));
#188=EDGE_LOOP('',(#857,#858,#859,#860));
#189=EDGE_LOOP('',(#861,#862,#863,#864));
#190=EDGE_LOOP('',(#865,#866,#867,#868));
#191=EDGE_LOOP('',(#869,#870,#871,#872));
#192=EDGE_LOOP('',(#873,#874,#875,#876));
#193=EDGE_LOOP('',(#877,#878,#879,#880));
#194=EDGE_LOOP('',(#881,#882,#883,#884));
#195=EDGE_LOOP('',(#885,#886,#887,#888));
#196=EDGE_LOOP('',(#889,#890,#891,#892));
#197=EDGE_LOOP('',(#893,#894,#895,#896));
#198=EDGE_LOOP('',(#897,#898,#899,#900));
#199=EDGE_LOOP('',(#901));
#200=EDGE_LOOP('',(#902,#903,#904,#905));
#201=EDGE_LOOP('',(#906));
#202=EDGE_LOOP('',(#907,#908,#909,#910));
#203=EDGE_LOOP('',(#911,#912,#913,#914));
#204=EDGE_LOOP('',(#915));
#205=EDGE_LOOP('',(#916,#917,#918,#919));
#206=EDGE_LOOP('',(#920));
#207=EDGE_LOOP('',(#921,#922,#923,#924));
#208=EDGE_LOOP('',(#925,#926,#927,#928));
#209=EDGE_LOOP('',(#929,#930,#931,#932));
#210=EDGE_LOOP('',(#933,#934,#935,#936));
#211=EDGE_LOOP('',(#937,#938,#939,#940));
#212=EDGE_LOOP('',(#941,#942,#943,#944));
#213=EDGE_LOOP('',(#945,#946,#947,#948));
#214=EDGE_LOOP('',(#949,#950,#951,#952));
#215=EDGE_LOOP('',(#953,#954,#955,#956));
#216=EDGE_LOOP('',(#957,#958,#959,#960));
#217=EDGE_LOOP('',(#961,#962,#963,#964,#965,#966,#967,#968,#969,#970,#971,
#972,#973,#974,#975,#976,#977,#978,#979,#980,#981,#982,#983,#984));
#218=EDGE_LOOP('',(#985,#986,#987,#988,#989,#990,#991,#992,#993));
#219=EDGE_LOOP('',(#994));
#220=EDGE_LOOP('',(#995));
#221=EDGE_LOOP('',(#996,#997,#998,#999,#1000,#1001,#1002,#1003,#1004,#1005));
#222=EDGE_LOOP('',(#1006));
#223=EDGE_LOOP('',(#1007));
#224=LINE('',#1507,#338);
#225=LINE('',#1509,#339);
#226=LINE('',#1511,#340);
#227=LINE('',#1512,#341);
#228=LINE('',#1517,#342);
#229=LINE('',#1523,#343);
#230=LINE('',#1528,#344);
#231=LINE('',#1530,#345);
#232=LINE('',#1532,#346);
#233=LINE('',#1533,#347);
#234=LINE('',#1538,#348);
#235=LINE('',#1544,#349);
#236=LINE('',#1550,#350);
#237=LINE('',#1554,#351);
#238=LINE('',#1556,#352);
#239=LINE('',#1557,#353);
#240=LINE('',#1560,#354);
#241=LINE('',#1562,#355);
#242=LINE('',#1564,#356);
#243=LINE('',#1565,#357);
#244=LINE('',#1568,#358);
#245=LINE('',#1570,#359);
#246=LINE('',#1571,#360);
#247=LINE('',#1574,#361);
#248=LINE('',#1576,#362);
#249=LINE('',#1578,#363);
#250=LINE('',#1580,#364);
#251=LINE('',#1582,#365);
#252=LINE('',#1584,#366);
#253=LINE('',#1586,#367);
#254=LINE('',#1588,#368);
#255=LINE('',#1590,#369);
#256=LINE('',#1592,#370);
#257=LINE('',#1593,#371);
#258=LINE('',#1595,#372);
#259=LINE('',#1597,#373);
#260=LINE('',#1598,#374);
#261=LINE('',#1601,#375);
#262=LINE('',#1602,#376);
#263=LINE('',#1603,#377);
#264=LINE('',#1605,#378);
#265=LINE('',#1606,#379);
#266=LINE('',#1612,#380);
#267=LINE('',#1614,#381);
#268=LINE('',#1616,#382);
#269=LINE('',#1617,#383);
#270=LINE('',#1623,#384);
#271=LINE('',#1624,#385);
#272=LINE('',#1625,#386);
#273=LINE('',#1632,#387);
#274=LINE('',#1634,#388);
#275=LINE('',#1635,#389);
#276=LINE('',#1643,#390);
#277=LINE('',#1645,#391);
#278=LINE('',#1647,#392);
#279=LINE('',#1648,#393);
#280=LINE('',#1656,#394);
#281=LINE('',#1658,#395);
#282=LINE('',#1660,#396);
#283=LINE('',#1661,#397);
#284=LINE('',#1665,#398);
#285=LINE('',#1666,#399);
#286=LINE('',#1672,#400);
#287=LINE('',#1674,#401);
#288=LINE('',#1676,#402);
#289=LINE('',#1677,#403);
#290=LINE('',#1685,#404);
#291=LINE('',#1687,#405);
#292=LINE('',#1689,#406);
#293=LINE('',#1690,#407);
#294=LINE('',#1694,#408);
#295=LINE('',#1695,#409);
#296=LINE('',#1698,#410);
#297=LINE('',#1700,#411);
#298=LINE('',#1702,#412);
#299=LINE('',#1704,#413);
#300=LINE('',#1705,#414);
#301=LINE('',#1706,#415);
#302=LINE('',#1707,#416);
#303=LINE('',#1710,#417);
#304=LINE('',#1712,#418);
#305=LINE('',#1713,#419);
#306=LINE('',#1715,#420);
#307=LINE('',#1716,#421);
#308=LINE('',#1719,#422);
#309=LINE('',#1721,#423);
#310=LINE('',#1722,#424);
#311=LINE('',#1724,#425);
#312=LINE('',#1725,#426);
#313=LINE('',#1734,#427);
#314=LINE('',#1737,#428);
#315=LINE('',#1741,#429);
#316=LINE('',#1745,#430);
#317=LINE('',#1746,#431);
#318=LINE('',#1753,#432);
#319=LINE('',#1755,#433);
#320=LINE('',#1759,#434);
#321=LINE('',#1763,#435);
#322=LINE('',#1764,#436);
#323=LINE('',#1771,#437);
#324=LINE('',#1773,#438);
#325=LINE('',#1777,#439);
#326=LINE('',#1780,#440);
#327=LINE('',#1783,#441);
#328=LINE('',#1787,#442);
#329=LINE('',#1789,#443);
#330=LINE('',#1793,#444);
#331=LINE('',#1796,#445);
#332=LINE('',#1799,#446);
#333=LINE('',#1801,#447);
#334=LINE('',#1802,#448);
#335=LINE('',#1804,#449);
#336=LINE('',#1806,#450);
#337=LINE('',#1807,#451);
#338=VECTOR('',#1207,10.);
#339=VECTOR('',#1208,10.);
#340=VECTOR('',#1209,10.);
#341=VECTOR('',#1210,10.);
#342=VECTOR('',#1215,1.99999999999999);
#343=VECTOR('',#1222,2.);
#344=VECTOR('',#1227,10.);
#345=VECTOR('',#1228,10.);
#346=VECTOR('',#1229,10.);
#347=VECTOR('',#1230,10.);
#348=VECTOR('',#1235,10.);
#349=VECTOR('',#1242,2.);
#350=VECTOR('',#1249,2.);
#351=VECTOR('',#1254,10.);
#352=VECTOR('',#1255,10.);
#353=VECTOR('',#1256,10.);
#354=VECTOR('',#1259,10.);
#355=VECTOR('',#1260,10.);
#356=VECTOR('',#1261,10.);
#357=VECTOR('',#1262,10.);
#358=VECTOR('',#1265,10.);
#359=VECTOR('',#1266,10.);
#360=VECTOR('',#1267,10.);
#361=VECTOR('',#1270,10.);
#362=VECTOR('',#1271,10.);
#363=VECTOR('',#1272,10.);
#364=VECTOR('',#1273,10.);
#365=VECTOR('',#1274,10.);
#366=VECTOR('',#1275,10.);
#367=VECTOR('',#1276,10.);
#368=VECTOR('',#1277,10.);
#369=VECTOR('',#1278,10.);
#370=VECTOR('',#1279,10.);
#371=VECTOR('',#1280,10.);
#372=VECTOR('',#1281,10.);
#373=VECTOR('',#1282,10.);
#374=VECTOR('',#1283,10.);
#375=VECTOR('',#1286,10.);
#376=VECTOR('',#1287,10.);
#377=VECTOR('',#1288,10.);
#378=VECTOR('',#1291,10.);
#379=VECTOR('',#1292,10.);
#380=VECTOR('',#1299,10.);
#381=VECTOR('',#1300,10.);
#382=VECTOR('',#1301,10.);
#383=VECTOR('',#1302,10.);
#384=VECTOR('',#1307,10.);
#385=VECTOR('',#1308,10.);
#386=VECTOR('',#1309,10.);
#387=VECTOR('',#1316,10.);
#388=VECTOR('',#1317,10.);
#389=VECTOR('',#1318,10.);
#390=VECTOR('',#1325,10.);
#391=VECTOR('',#1326,10.);
#392=VECTOR('',#1327,10.);
#393=VECTOR('',#1328,10.);
#394=VECTOR('',#1335,10.);
#395=VECTOR('',#1336,10.);
#396=VECTOR('',#1337,10.);
#397=VECTOR('',#1338,10.);
#398=VECTOR('',#1343,10.);
#399=VECTOR('',#1344,10.);
#400=VECTOR('',#1349,10.);
#401=VECTOR('',#1350,10.);
#402=VECTOR('',#1351,10.);
#403=VECTOR('',#1352,10.);
#404=VECTOR('',#1359,10.);
#405=VECTOR('',#1360,10.);
#406=VECTOR('',#1361,10.);
#407=VECTOR('',#1362,10.);
#408=VECTOR('',#1367,10.);
#409=VECTOR('',#1368,10.);
#410=VECTOR('',#1371,10.);
#411=VECTOR('',#1372,10.);
#412=VECTOR('',#1373,10.);
#413=VECTOR('',#1374,10.);
#414=VECTOR('',#1375,10.);
#415=VECTOR('',#1376,10.);
#416=VECTOR('',#1377,10.);
#417=VECTOR('',#1380,10.);
#418=VECTOR('',#1381,10.);
#419=VECTOR('',#1382,10.);
#420=VECTOR('',#1385,10.);
#421=VECTOR('',#1386,10.);
#422=VECTOR('',#1389,10.);
#423=VECTOR('',#1390,10.);
#424=VECTOR('',#1391,10.);
#425=VECTOR('',#1394,10.);
#426=VECTOR('',#1395,10.);
#427=VECTOR('',#1410,4.);
#428=VECTOR('',#1415,4.);
#429=VECTOR('',#1420,4.);
#430=VECTOR('',#1423,10.);
#431=VECTOR('',#1424,10.);
#432=VECTOR('',#1431,10.);
#433=VECTOR('',#1434,10.);
#434=VECTOR('',#1439,10.);
#435=VECTOR('',#1442,10.);
#436=VECTOR('',#1443,10.);
#437=VECTOR('',#1450,10.);
#438=VECTOR('',#1453,10.);
#439=VECTOR('',#1458,10.);
#440=VECTOR('',#1461,10.);
#441=VECTOR('',#1466,10.);
#442=VECTOR('',#1471,10.);
#443=VECTOR('',#1474,6.);
#444=VECTOR('',#1479,6.);
#445=VECTOR('',#1482,6.);
#446=VECTOR('',#1487,4.);
#447=VECTOR('',#1490,10.);
#448=VECTOR('',#1491,10.);
#449=VECTOR('',#1494,10.);
#450=VECTOR('',#1497,10.);
#451=VECTOR('',#1498,10.);
#452=VERTEX_POINT('',#1505);
#453=VERTEX_POINT('',#1506);
#454=VERTEX_POINT('',#1508);
#455=VERTEX_POINT('',#1510);
#456=VERTEX_POINT('',#1514);
#457=VERTEX_POINT('',#1516);
#458=VERTEX_POINT('',#1520);
#459=VERTEX_POINT('',#1522);
#460=VERTEX_POINT('',#1526);
#461=VERTEX_POINT('',#1527);
#462=VERTEX_POINT('',#1529);
#463=VERTEX_POINT('',#1531);
#464=VERTEX_POINT('',#1535);
#465=VERTEX_POINT('',#1537);
#466=VERTEX_POINT('',#1541);
#467=VERTEX_POINT('',#1543);
#468=VERTEX_POINT('',#1547);
#469=VERTEX_POINT('',#1549);
#470=VERTEX_POINT('',#1553);
#471=VERTEX_POINT('',#1555);
#472=VERTEX_POINT('',#1559);
#473=VERTEX_POINT('',#1561);
#474=VERTEX_POINT('',#1563);
#475=VERTEX_POINT('',#1567);
#476=VERTEX_POINT('',#1569);
#477=VERTEX_POINT('',#1573);
#478=VERTEX_POINT('',#1575);
#479=VERTEX_POINT('',#1577);
#480=VERTEX_POINT('',#1579);
#481=VERTEX_POINT('',#1581);
#482=VERTEX_POINT('',#1583);
#483=VERTEX_POINT('',#1585);
#484=VERTEX_POINT('',#1587);
#485=VERTEX_POINT('',#1589);
#486=VERTEX_POINT('',#1591);
#487=VERTEX_POINT('',#1594);
#488=VERTEX_POINT('',#1596);
#489=VERTEX_POINT('',#1600);
#490=VERTEX_POINT('',#1610);
#491=VERTEX_POINT('',#1611);
#492=VERTEX_POINT('',#1613);
#493=VERTEX_POINT('',#1615);
#494=VERTEX_POINT('',#1619);
#495=VERTEX_POINT('',#1620);
#496=VERTEX_POINT('',#1622);
#497=VERTEX_POINT('',#1626);
#498=VERTEX_POINT('',#1629);
#499=VERTEX_POINT('',#1630);
#500=VERTEX_POINT('',#1633);
#501=VERTEX_POINT('',#1636);
#502=VERTEX_POINT('',#1639);
#503=VERTEX_POINT('',#1640);
#504=VERTEX_POINT('',#1642);
#505=VERTEX_POINT('',#1644);
#506=VERTEX_POINT('',#1646);
#507=VERTEX_POINT('',#1649);
#508=VERTEX_POINT('',#1652);
#509=VERTEX_POINT('',#1653);
#510=VERTEX_POINT('',#1655);
#511=VERTEX_POINT('',#1657);
#512=VERTEX_POINT('',#1659);
#513=VERTEX_POINT('',#1662);
#514=VERTEX_POINT('',#1668);
#515=VERTEX_POINT('',#1669);
#516=VERTEX_POINT('',#1671);
#517=VERTEX_POINT('',#1673);
#518=VERTEX_POINT('',#1675);
#519=VERTEX_POINT('',#1678);
#520=VERTEX_POINT('',#1681);
#521=VERTEX_POINT('',#1682);
#522=VERTEX_POINT('',#1684);
#523=VERTEX_POINT('',#1686);
#524=VERTEX_POINT('',#1688);
#525=VERTEX_POINT('',#1691);
#526=VERTEX_POINT('',#1697);
#527=VERTEX_POINT('',#1699);
#528=VERTEX_POINT('',#1701);
#529=VERTEX_POINT('',#1703);
#530=VERTEX_POINT('',#1709);
#531=VERTEX_POINT('',#1711);
#532=VERTEX_POINT('',#1718);
#533=VERTEX_POINT('',#1720);
#534=VERTEX_POINT('',#1733);
#535=VERTEX_POINT('',#1739);
#536=VERTEX_POINT('',#1743);
#537=VERTEX_POINT('',#1744);
#538=VERTEX_POINT('',#1748);
#539=VERTEX_POINT('',#1751);
#540=VERTEX_POINT('',#1752);
#541=VERTEX_POINT('',#1756);
#542=VERTEX_POINT('',#1761);
#543=VERTEX_POINT('',#1762);
#544=VERTEX_POINT('',#1766);
#545=VERTEX_POINT('',#1769);
#546=VERTEX_POINT('',#1770);
#547=VERTEX_POINT('',#1774);
#548=VERTEX_POINT('',#1779);
#549=VERTEX_POINT('',#1785);
#550=VERTEX_POINT('',#1791);
#551=VERTEX_POINT('',#1795);
#552=EDGE_CURVE('',#452,#453,#224,.T.);
#553=EDGE_CURVE('',#454,#452,#225,.T.);
#554=EDGE_CURVE('',#455,#454,#226,.T.);
#555=EDGE_CURVE('',#453,#455,#227,.T.);
#556=EDGE_CURVE('',#456,#456,#73,.T.);
#557=EDGE_CURVE('',#456,#457,#228,.T.);
#558=EDGE_CURVE('',#457,#457,#37,.T.);
#559=EDGE_CURVE('',#458,#458,#38,.T.);
#560=EDGE_CURVE('',#458,#459,#229,.T.);
#561=EDGE_CURVE('',#459,#459,#39,.T.);
#562=EDGE_CURVE('',#460,#461,#230,.T.);
#563=EDGE_CURVE('',#462,#460,#231,.T.);
#564=EDGE_CURVE('',#463,#462,#232,.T.);
#565=EDGE_CURVE('',#461,#463,#233,.T.);
#566=EDGE_CURVE('',#464,#462,#40,.T.);
#567=EDGE_CURVE('',#465,#464,#234,.T.);
#568=EDGE_CURVE('',#463,#465,#41,.T.);
#569=EDGE_CURVE('',#466,#466,#74,.T.);
#570=EDGE_CURVE('',#466,#467,#235,.T.);
#571=EDGE_CURVE('',#467,#467,#42,.T.);
#572=EDGE_CURVE('',#468,#468,#43,.T.);
#573=EDGE_CURVE('',#468,#469,#236,.T.);
#574=EDGE_CURVE('',#469,#469,#44,.T.);
#575=EDGE_CURVE('',#461,#470,#237,.T.);
#576=EDGE_CURVE('',#471,#470,#238,.T.);
#577=EDGE_CURVE('',#460,#471,#239,.T.);
#578=EDGE_CURVE('',#472,#453,#240,.T.);
#579=EDGE_CURVE('',#473,#472,#241,.T.);
#580=EDGE_CURVE('',#473,#474,#242,.T.);
#581=EDGE_CURVE('',#452,#474,#243,.T.);
#582=EDGE_CURVE('',#475,#454,#244,.T.);
#583=EDGE_CURVE('',#476,#475,#245,.T.);
#584=EDGE_CURVE('',#476,#455,#246,.T.);
#585=EDGE_CURVE('',#477,#465,#247,.T.);
#586=EDGE_CURVE('',#478,#477,#248,.T.);
#587=EDGE_CURVE('',#478,#479,#249,.T.);
#588=EDGE_CURVE('',#479,#480,#250,.T.);
#589=EDGE_CURVE('',#480,#481,#251,.T.);
#590=EDGE_CURVE('',#482,#481,#252,.T.);
#591=EDGE_CURVE('',#482,#483,#253,.T.);
#592=EDGE_CURVE('',#483,#484,#254,.T.);
#593=EDGE_CURVE('',#484,#485,#255,.T.);
#594=EDGE_CURVE('',#486,#485,#256,.T.);
#595=EDGE_CURVE('',#486,#475,#257,.T.);
#596=EDGE_CURVE('',#487,#454,#258,.T.);
#597=EDGE_CURVE('',#487,#488,#259,.T.);
#598=EDGE_CURVE('',#470,#488,#260,.T.);
#599=EDGE_CURVE('',#489,#471,#261,.T.);
#600=EDGE_CURVE('',#474,#489,#262,.T.);
#601=EDGE_CURVE('',#464,#474,#263,.T.);
#602=EDGE_CURVE('',#474,#487,#264,.T.);
#603=EDGE_CURVE('',#488,#489,#265,.T.);
#604=EDGE_CURVE('',#490,#491,#266,.T.);
#605=EDGE_CURVE('',#490,#492,#267,.F.);
#606=EDGE_CURVE('',#492,#493,#268,.F.);
#607=EDGE_CURVE('',#493,#491,#269,.F.);
#608=EDGE_CURVE('',#494,#495,#45,.T.);
#609=EDGE_CURVE('',#496,#494,#270,.T.);
#610=EDGE_CURVE('',#496,#492,#271,.T.);
#611=EDGE_CURVE('',#495,#490,#272,.T.);
#612=EDGE_CURVE('',#497,#497,#46,.T.);
#613=EDGE_CURVE('',#498,#499,#47,.T.);
#614=EDGE_CURVE('',#491,#498,#273,.T.);
#615=EDGE_CURVE('',#500,#493,#274,.T.);
#616=EDGE_CURVE('',#499,#500,#275,.T.);
#617=EDGE_CURVE('',#501,#501,#48,.T.);
#618=EDGE_CURVE('',#502,#503,#49,.T.);
#619=EDGE_CURVE('',#504,#502,#276,.T.);
#620=EDGE_CURVE('',#504,#505,#277,.T.);
#621=EDGE_CURVE('',#506,#505,#278,.F.);
#622=EDGE_CURVE('',#503,#506,#279,.T.);
#623=EDGE_CURVE('',#507,#507,#50,.T.);
#624=EDGE_CURVE('',#508,#509,#51,.T.);
#625=EDGE_CURVE('',#510,#508,#280,.T.);
#626=EDGE_CURVE('',#511,#510,#281,.F.);
#627=EDGE_CURVE('',#512,#511,#282,.T.);
#628=EDGE_CURVE('',#509,#512,#283,.T.);
#629=EDGE_CURVE('',#513,#513,#52,.T.);
#630=EDGE_CURVE('',#506,#510,#284,.T.);
#631=EDGE_CURVE('',#505,#511,#285,.F.);
#632=EDGE_CURVE('',#514,#515,#53,.T.);
#633=EDGE_CURVE('',#516,#514,#286,.T.);
#634=EDGE_CURVE('',#516,#517,#287,.T.);
#635=EDGE_CURVE('',#518,#517,#288,.F.);
#636=EDGE_CURVE('',#515,#518,#289,.T.);
#637=EDGE_CURVE('',#519,#519,#54,.T.);
#638=EDGE_CURVE('',#520,#521,#55,.T.);
#639=EDGE_CURVE('',#522,#520,#290,.T.);
#640=EDGE_CURVE('',#523,#522,#291,.F.);
#641=EDGE_CURVE('',#524,#523,#292,.T.);
#642=EDGE_CURVE('',#521,#524,#293,.T.);
#643=EDGE_CURVE('',#525,#525,#56,.T.);
#644=EDGE_CURVE('',#518,#522,#294,.T.);
#645=EDGE_CURVE('',#517,#523,#295,.F.);
#646=EDGE_CURVE('',#498,#526,#296,.T.);
#647=EDGE_CURVE('',#527,#526,#297,.T.);
#648=EDGE_CURVE('',#528,#527,#298,.T.);
#649=EDGE_CURVE('',#529,#528,#299,.T.);
#650=EDGE_CURVE('',#529,#515,#300,.T.);
#651=EDGE_CURVE('',#520,#503,#301,.T.);
#652=EDGE_CURVE('',#508,#495,#302,.T.);
#653=EDGE_CURVE('',#530,#514,#303,.T.);
#654=EDGE_CURVE('',#530,#531,#304,.T.);
#655=EDGE_CURVE('',#531,#516,#305,.T.);
#656=EDGE_CURVE('',#521,#502,#306,.T.);
#657=EDGE_CURVE('',#524,#504,#307,.T.);
#658=EDGE_CURVE('',#500,#532,#308,.T.);
#659=EDGE_CURVE('',#533,#532,#309,.T.);
#660=EDGE_CURVE('',#499,#533,#310,.T.);
#661=EDGE_CURVE('',#509,#494,#311,.T.);
#662=EDGE_CURVE('',#512,#496,#312,.T.);
#663=EDGE_CURVE('',#529,#530,#57,.T.);
#664=EDGE_CURVE('',#526,#533,#58,.T.);
#665=EDGE_CURVE('',#519,#534,#313,.T.);
#666=EDGE_CURVE('',#534,#534,#59,.T.);
#667=EDGE_CURVE('',#507,#525,#314,.T.);
#668=EDGE_CURVE('',#535,#535,#60,.T.);
#669=EDGE_CURVE('',#535,#501,#315,.T.);
#670=EDGE_CURVE('',#536,#537,#316,.T.);
#671=EDGE_CURVE('',#479,#536,#317,.T.);
#672=EDGE_CURVE('',#537,#478,#61,.T.);
#673=EDGE_CURVE('',#538,#538,#62,.T.);
#674=EDGE_CURVE('',#539,#540,#318,.T.);
#675=EDGE_CURVE('',#481,#539,#63,.T.);
#676=EDGE_CURVE('',#480,#540,#319,.T.);
#677=EDGE_CURVE('',#541,#541,#64,.T.);
#678=EDGE_CURVE('',#540,#536,#320,.T.);
#679=EDGE_CURVE('',#542,#543,#321,.T.);
#680=EDGE_CURVE('',#483,#542,#322,.T.);
#681=EDGE_CURVE('',#543,#482,#65,.T.);
#682=EDGE_CURVE('',#544,#544,#66,.T.);
#683=EDGE_CURVE('',#545,#546,#323,.T.);
#684=EDGE_CURVE('',#485,#545,#67,.T.);
#685=EDGE_CURVE('',#484,#546,#324,.T.);
#686=EDGE_CURVE('',#547,#547,#68,.T.);
#687=EDGE_CURVE('',#546,#542,#325,.T.);
#688=EDGE_CURVE('',#548,#545,#326,.T.);
#689=EDGE_CURVE('',#548,#486,#69,.T.);
#690=EDGE_CURVE('',#543,#539,#327,.T.);
#691=EDGE_CURVE('',#549,#477,#70,.T.);
#692=EDGE_CURVE('',#537,#549,#328,.T.);
#693=EDGE_CURVE('',#541,#544,#329,.T.);
#694=EDGE_CURVE('',#550,#550,#71,.T.);
#695=EDGE_CURVE('',#550,#538,#330,.T.);
#696=EDGE_CURVE('',#547,#551,#331,.T.);
#697=EDGE_CURVE('',#551,#551,#72,.T.);
#698=EDGE_CURVE('',#497,#513,#332,.T.);
#699=EDGE_CURVE('',#528,#473,#333,.T.);
#700=EDGE_CURVE('',#474,#527,#334,.T.);
#701=EDGE_CURVE('',#472,#476,#335,.T.);
#702=EDGE_CURVE('',#532,#549,#336,.T.);
#703=EDGE_CURVE('',#548,#531,#337,.T.);
#704=ORIENTED_EDGE('',*,*,#552,.F.);
#705=ORIENTED_EDGE('',*,*,#553,.F.);
#706=ORIENTED_EDGE('',*,*,#554,.F.);
#707=ORIENTED_EDGE('',*,*,#555,.F.);
#708=ORIENTED_EDGE('',*,*,#556,.F.);
#709=ORIENTED_EDGE('',*,*,#557,.T.);
#710=ORIENTED_EDGE('',*,*,#558,.F.);
#711=ORIENTED_EDGE('',*,*,#557,.F.);
#712=ORIENTED_EDGE('',*,*,#559,.F.);
#713=ORIENTED_EDGE('',*,*,#560,.T.);
#714=ORIENTED_EDGE('',*,*,#561,.F.);
#715=ORIENTED_EDGE('',*,*,#560,.F.);
#716=ORIENTED_EDGE('',*,*,#562,.F.);
#717=ORIENTED_EDGE('',*,*,#563,.F.);
#718=ORIENTED_EDGE('',*,*,#564,.F.);
#719=ORIENTED_EDGE('',*,*,#565,.F.);
#720=ORIENTED_EDGE('',*,*,#566,.F.);
#721=ORIENTED_EDGE('',*,*,#567,.F.);
#722=ORIENTED_EDGE('',*,*,#568,.F.);
#723=ORIENTED_EDGE('',*,*,#564,.T.);
#724=ORIENTED_EDGE('',*,*,#569,.F.);
#725=ORIENTED_EDGE('',*,*,#570,.T.);
#726=ORIENTED_EDGE('',*,*,#571,.F.);
#727=ORIENTED_EDGE('',*,*,#570,.F.);
#728=ORIENTED_EDGE('',*,*,#572,.F.);
#729=ORIENTED_EDGE('',*,*,#573,.T.);
#730=ORIENTED_EDGE('',*,*,#574,.F.);
#731=ORIENTED_EDGE('',*,*,#573,.F.);
#732=ORIENTED_EDGE('',*,*,#562,.T.);
#733=ORIENTED_EDGE('',*,*,#575,.T.);
#734=ORIENTED_EDGE('',*,*,#576,.F.);
#735=ORIENTED_EDGE('',*,*,#577,.F.);
#736=ORIENTED_EDGE('',*,*,#552,.T.);
#737=ORIENTED_EDGE('',*,*,#578,.F.);
#738=ORIENTED_EDGE('',*,*,#579,.F.);
#739=ORIENTED_EDGE('',*,*,#580,.T.);
#740=ORIENTED_EDGE('',*,*,#581,.F.);
#741=ORIENTED_EDGE('',*,*,#571,.T.);
#742=ORIENTED_EDGE('',*,*,#558,.T.);
#743=ORIENTED_EDGE('',*,*,#554,.T.);
#744=ORIENTED_EDGE('',*,*,#582,.F.);
#745=ORIENTED_EDGE('',*,*,#583,.F.);
#746=ORIENTED_EDGE('',*,*,#584,.T.);
#747=ORIENTED_EDGE('',*,*,#569,.T.);
#748=ORIENTED_EDGE('',*,*,#556,.T.);
#749=ORIENTED_EDGE('',*,*,#565,.T.);
#750=ORIENTED_EDGE('',*,*,#568,.T.);
#751=ORIENTED_EDGE('',*,*,#585,.F.);
#752=ORIENTED_EDGE('',*,*,#586,.F.);
#753=ORIENTED_EDGE('',*,*,#587,.T.);
#754=ORIENTED_EDGE('',*,*,#588,.T.);
#755=ORIENTED_EDGE('',*,*,#589,.T.);
#756=ORIENTED_EDGE('',*,*,#590,.F.);
#757=ORIENTED_EDGE('',*,*,#591,.T.);
#758=ORIENTED_EDGE('',*,*,#592,.T.);
#759=ORIENTED_EDGE('',*,*,#593,.T.);
#760=ORIENTED_EDGE('',*,*,#594,.F.);
#761=ORIENTED_EDGE('',*,*,#595,.T.);
#762=ORIENTED_EDGE('',*,*,#582,.T.);
#763=ORIENTED_EDGE('',*,*,#596,.F.);
#764=ORIENTED_EDGE('',*,*,#597,.T.);
#765=ORIENTED_EDGE('',*,*,#598,.F.);
#766=ORIENTED_EDGE('',*,*,#575,.F.);
#767=ORIENTED_EDGE('',*,*,#572,.T.);
#768=ORIENTED_EDGE('',*,*,#559,.T.);
#769=ORIENTED_EDGE('',*,*,#563,.T.);
#770=ORIENTED_EDGE('',*,*,#577,.T.);
#771=ORIENTED_EDGE('',*,*,#599,.F.);
#772=ORIENTED_EDGE('',*,*,#600,.F.);
#773=ORIENTED_EDGE('',*,*,#601,.F.);
#774=ORIENTED_EDGE('',*,*,#566,.T.);
#775=ORIENTED_EDGE('',*,*,#561,.T.);
#776=ORIENTED_EDGE('',*,*,#574,.T.);
#777=ORIENTED_EDGE('',*,*,#602,.F.);
#778=ORIENTED_EDGE('',*,*,#600,.T.);
#779=ORIENTED_EDGE('',*,*,#603,.F.);
#780=ORIENTED_EDGE('',*,*,#597,.F.);
#781=ORIENTED_EDGE('',*,*,#603,.T.);
#782=ORIENTED_EDGE('',*,*,#599,.T.);
#783=ORIENTED_EDGE('',*,*,#576,.T.);
#784=ORIENTED_EDGE('',*,*,#598,.T.);
#785=ORIENTED_EDGE('',*,*,#553,.T.);
#786=ORIENTED_EDGE('',*,*,#581,.T.);
#787=ORIENTED_EDGE('',*,*,#602,.T.);
#788=ORIENTED_EDGE('',*,*,#596,.T.);
#789=ORIENTED_EDGE('',*,*,#604,.F.);
#790=ORIENTED_EDGE('',*,*,#605,.T.);
#791=ORIENTED_EDGE('',*,*,#606,.T.);
#792=ORIENTED_EDGE('',*,*,#607,.T.);
#793=ORIENTED_EDGE('',*,*,#608,.F.);
#794=ORIENTED_EDGE('',*,*,#609,.F.);
#795=ORIENTED_EDGE('',*,*,#610,.T.);
#796=ORIENTED_EDGE('',*,*,#605,.F.);
#797=ORIENTED_EDGE('',*,*,#611,.F.);
#798=ORIENTED_EDGE('',*,*,#612,.F.);
#799=ORIENTED_EDGE('',*,*,#613,.F.);
#800=ORIENTED_EDGE('',*,*,#614,.F.);
#801=ORIENTED_EDGE('',*,*,#607,.F.);
#802=ORIENTED_EDGE('',*,*,#615,.F.);
#803=ORIENTED_EDGE('',*,*,#616,.F.);
#804=ORIENTED_EDGE('',*,*,#617,.F.);
#805=ORIENTED_EDGE('',*,*,#618,.F.);
#806=ORIENTED_EDGE('',*,*,#619,.F.);
#807=ORIENTED_EDGE('',*,*,#620,.T.);
#808=ORIENTED_EDGE('',*,*,#621,.F.);
#809=ORIENTED_EDGE('',*,*,#622,.F.);
#810=ORIENTED_EDGE('',*,*,#623,.F.);
#811=ORIENTED_EDGE('',*,*,#624,.F.);
#812=ORIENTED_EDGE('',*,*,#625,.F.);
#813=ORIENTED_EDGE('',*,*,#626,.F.);
#814=ORIENTED_EDGE('',*,*,#627,.F.);
#815=ORIENTED_EDGE('',*,*,#628,.F.);
#816=ORIENTED_EDGE('',*,*,#629,.F.);
#817=ORIENTED_EDGE('',*,*,#630,.F.);
#818=ORIENTED_EDGE('',*,*,#621,.T.);
#819=ORIENTED_EDGE('',*,*,#631,.T.);
#820=ORIENTED_EDGE('',*,*,#626,.T.);
#821=ORIENTED_EDGE('',*,*,#632,.F.);
#822=ORIENTED_EDGE('',*,*,#633,.F.);
#823=ORIENTED_EDGE('',*,*,#634,.T.);
#824=ORIENTED_EDGE('',*,*,#635,.F.);
#825=ORIENTED_EDGE('',*,*,#636,.F.);
#826=ORIENTED_EDGE('',*,*,#637,.F.);
#827=ORIENTED_EDGE('',*,*,#638,.F.);
#828=ORIENTED_EDGE('',*,*,#639,.F.);
#829=ORIENTED_EDGE('',*,*,#640,.F.);
#830=ORIENTED_EDGE('',*,*,#641,.F.);
#831=ORIENTED_EDGE('',*,*,#642,.F.);
#832=ORIENTED_EDGE('',*,*,#643,.F.);
#833=ORIENTED_EDGE('',*,*,#644,.F.);
#834=ORIENTED_EDGE('',*,*,#635,.T.);
#835=ORIENTED_EDGE('',*,*,#645,.T.);
#836=ORIENTED_EDGE('',*,*,#640,.T.);
#837=ORIENTED_EDGE('',*,*,#611,.T.);
#838=ORIENTED_EDGE('',*,*,#604,.T.);
#839=ORIENTED_EDGE('',*,*,#614,.T.);
#840=ORIENTED_EDGE('',*,*,#646,.T.);
#841=ORIENTED_EDGE('',*,*,#647,.F.);
#842=ORIENTED_EDGE('',*,*,#648,.F.);
#843=ORIENTED_EDGE('',*,*,#649,.F.);
#844=ORIENTED_EDGE('',*,*,#650,.T.);
#845=ORIENTED_EDGE('',*,*,#636,.T.);
#846=ORIENTED_EDGE('',*,*,#644,.T.);
#847=ORIENTED_EDGE('',*,*,#639,.T.);
#848=ORIENTED_EDGE('',*,*,#651,.T.);
#849=ORIENTED_EDGE('',*,*,#622,.T.);
#850=ORIENTED_EDGE('',*,*,#630,.T.);
#851=ORIENTED_EDGE('',*,*,#625,.T.);
#852=ORIENTED_EDGE('',*,*,#652,.T.);
#853=ORIENTED_EDGE('',*,*,#633,.T.);
#854=ORIENTED_EDGE('',*,*,#653,.F.);
#855=ORIENTED_EDGE('',*,*,#654,.T.);
#856=ORIENTED_EDGE('',*,*,#655,.T.);
#857=ORIENTED_EDGE('',*,*,#619,.T.);
#858=ORIENTED_EDGE('',*,*,#656,.F.);
#859=ORIENTED_EDGE('',*,*,#642,.T.);
#860=ORIENTED_EDGE('',*,*,#657,.T.);
#861=ORIENTED_EDGE('',*,*,#616,.T.);
#862=ORIENTED_EDGE('',*,*,#658,.T.);
#863=ORIENTED_EDGE('',*,*,#659,.F.);
#864=ORIENTED_EDGE('',*,*,#660,.F.);
#865=ORIENTED_EDGE('',*,*,#609,.T.);
#866=ORIENTED_EDGE('',*,*,#661,.F.);
#867=ORIENTED_EDGE('',*,*,#628,.T.);
#868=ORIENTED_EDGE('',*,*,#662,.T.);
#869=ORIENTED_EDGE('',*,*,#632,.T.);
#870=ORIENTED_EDGE('',*,*,#650,.F.);
#871=ORIENTED_EDGE('',*,*,#663,.T.);
#872=ORIENTED_EDGE('',*,*,#653,.T.);
#873=ORIENTED_EDGE('',*,*,#618,.T.);
#874=ORIENTED_EDGE('',*,*,#651,.F.);
#875=ORIENTED_EDGE('',*,*,#638,.T.);
#876=ORIENTED_EDGE('',*,*,#656,.T.);
#877=ORIENTED_EDGE('',*,*,#613,.T.);
#878=ORIENTED_EDGE('',*,*,#660,.T.);
#879=ORIENTED_EDGE('',*,*,#664,.F.);
#880=ORIENTED_EDGE('',*,*,#646,.F.);
#881=ORIENTED_EDGE('',*,*,#608,.T.);
#882=ORIENTED_EDGE('',*,*,#652,.F.);
#883=ORIENTED_EDGE('',*,*,#624,.T.);
#884=ORIENTED_EDGE('',*,*,#661,.T.);
#885=ORIENTED_EDGE('',*,*,#637,.T.);
#886=ORIENTED_EDGE('',*,*,#665,.T.);
#887=ORIENTED_EDGE('',*,*,#666,.T.);
#888=ORIENTED_EDGE('',*,*,#665,.F.);
#889=ORIENTED_EDGE('',*,*,#623,.T.);
#890=ORIENTED_EDGE('',*,*,#667,.T.);
#891=ORIENTED_EDGE('',*,*,#643,.T.);
#892=ORIENTED_EDGE('',*,*,#667,.F.);
#893=ORIENTED_EDGE('',*,*,#668,.F.);
#894=ORIENTED_EDGE('',*,*,#669,.T.);
#895=ORIENTED_EDGE('',*,*,#617,.T.);
#896=ORIENTED_EDGE('',*,*,#669,.F.);
#897=ORIENTED_EDGE('',*,*,#670,.F.);
#898=ORIENTED_EDGE('',*,*,#671,.F.);
#899=ORIENTED_EDGE('',*,*,#587,.F.);
#900=ORIENTED_EDGE('',*,*,#672,.F.);
#901=ORIENTED_EDGE('',*,*,#673,.F.);
#902=ORIENTED_EDGE('',*,*,#674,.F.);
#903=ORIENTED_EDGE('',*,*,#675,.F.);
#904=ORIENTED_EDGE('',*,*,#589,.F.);
#905=ORIENTED_EDGE('',*,*,#676,.T.);
#906=ORIENTED_EDGE('',*,*,#677,.F.);
#907=ORIENTED_EDGE('',*,*,#678,.F.);
#908=ORIENTED_EDGE('',*,*,#676,.F.);
#909=ORIENTED_EDGE('',*,*,#588,.F.);
#910=ORIENTED_EDGE('',*,*,#671,.T.);
#911=ORIENTED_EDGE('',*,*,#679,.F.);
#912=ORIENTED_EDGE('',*,*,#680,.F.);
#913=ORIENTED_EDGE('',*,*,#591,.F.);
#914=ORIENTED_EDGE('',*,*,#681,.F.);
#915=ORIENTED_EDGE('',*,*,#682,.F.);
#916=ORIENTED_EDGE('',*,*,#683,.F.);
#917=ORIENTED_EDGE('',*,*,#684,.F.);
#918=ORIENTED_EDGE('',*,*,#593,.F.);
#919=ORIENTED_EDGE('',*,*,#685,.T.);
#920=ORIENTED_EDGE('',*,*,#686,.F.);
#921=ORIENTED_EDGE('',*,*,#687,.F.);
#922=ORIENTED_EDGE('',*,*,#685,.F.);
#923=ORIENTED_EDGE('',*,*,#592,.F.);
#924=ORIENTED_EDGE('',*,*,#680,.T.);
#925=ORIENTED_EDGE('',*,*,#684,.T.);
#926=ORIENTED_EDGE('',*,*,#688,.F.);
#927=ORIENTED_EDGE('',*,*,#689,.T.);
#928=ORIENTED_EDGE('',*,*,#594,.T.);
#929=ORIENTED_EDGE('',*,*,#675,.T.);
#930=ORIENTED_EDGE('',*,*,#690,.F.);
#931=ORIENTED_EDGE('',*,*,#681,.T.);
#932=ORIENTED_EDGE('',*,*,#590,.T.);
#933=ORIENTED_EDGE('',*,*,#672,.T.);
#934=ORIENTED_EDGE('',*,*,#586,.T.);
#935=ORIENTED_EDGE('',*,*,#691,.F.);
#936=ORIENTED_EDGE('',*,*,#692,.F.);
#937=ORIENTED_EDGE('',*,*,#677,.T.);
#938=ORIENTED_EDGE('',*,*,#693,.T.);
#939=ORIENTED_EDGE('',*,*,#682,.T.);
#940=ORIENTED_EDGE('',*,*,#693,.F.);
#941=ORIENTED_EDGE('',*,*,#694,.F.);
#942=ORIENTED_EDGE('',*,*,#695,.T.);
#943=ORIENTED_EDGE('',*,*,#673,.T.);
#944=ORIENTED_EDGE('',*,*,#695,.F.);
#945=ORIENTED_EDGE('',*,*,#686,.T.);
#946=ORIENTED_EDGE('',*,*,#696,.T.);
#947=ORIENTED_EDGE('',*,*,#697,.T.);
#948=ORIENTED_EDGE('',*,*,#696,.F.);
#949=ORIENTED_EDGE('',*,*,#612,.T.);
#950=ORIENTED_EDGE('',*,*,#698,.T.);
#951=ORIENTED_EDGE('',*,*,#629,.T.);
#952=ORIENTED_EDGE('',*,*,#698,.F.);
#953=ORIENTED_EDGE('',*,*,#699,.F.);
#954=ORIENTED_EDGE('',*,*,#648,.T.);
#955=ORIENTED_EDGE('',*,*,#700,.F.);
#956=ORIENTED_EDGE('',*,*,#580,.F.);
#957=ORIENTED_EDGE('',*,*,#555,.T.);
#958=ORIENTED_EDGE('',*,*,#584,.F.);
#959=ORIENTED_EDGE('',*,*,#701,.F.);
#960=ORIENTED_EDGE('',*,*,#578,.T.);
#961=ORIENTED_EDGE('',*,*,#670,.T.);
#962=ORIENTED_EDGE('',*,*,#692,.T.);
#963=ORIENTED_EDGE('',*,*,#702,.F.);
#964=ORIENTED_EDGE('',*,*,#658,.F.);
#965=ORIENTED_EDGE('',*,*,#615,.T.);
#966=ORIENTED_EDGE('',*,*,#606,.F.);
#967=ORIENTED_EDGE('',*,*,#610,.F.);
#968=ORIENTED_EDGE('',*,*,#662,.F.);
#969=ORIENTED_EDGE('',*,*,#627,.T.);
#970=ORIENTED_EDGE('',*,*,#631,.F.);
#971=ORIENTED_EDGE('',*,*,#620,.F.);
#972=ORIENTED_EDGE('',*,*,#657,.F.);
#973=ORIENTED_EDGE('',*,*,#641,.T.);
#974=ORIENTED_EDGE('',*,*,#645,.F.);
#975=ORIENTED_EDGE('',*,*,#634,.F.);
#976=ORIENTED_EDGE('',*,*,#655,.F.);
#977=ORIENTED_EDGE('',*,*,#703,.F.);
#978=ORIENTED_EDGE('',*,*,#688,.T.);
#979=ORIENTED_EDGE('',*,*,#683,.T.);
#980=ORIENTED_EDGE('',*,*,#687,.T.);
#981=ORIENTED_EDGE('',*,*,#679,.T.);
#982=ORIENTED_EDGE('',*,*,#690,.T.);
#983=ORIENTED_EDGE('',*,*,#674,.T.);
#984=ORIENTED_EDGE('',*,*,#678,.T.);
#985=ORIENTED_EDGE('',*,*,#601,.T.);
#986=ORIENTED_EDGE('',*,*,#700,.T.);
#987=ORIENTED_EDGE('',*,*,#647,.T.);
#988=ORIENTED_EDGE('',*,*,#664,.T.);
#989=ORIENTED_EDGE('',*,*,#659,.T.);
#990=ORIENTED_EDGE('',*,*,#702,.T.);
#991=ORIENTED_EDGE('',*,*,#691,.T.);
#992=ORIENTED_EDGE('',*,*,#585,.T.);
#993=ORIENTED_EDGE('',*,*,#567,.T.);
#994=ORIENTED_EDGE('',*,*,#668,.T.);
#995=ORIENTED_EDGE('',*,*,#694,.T.);
#996=ORIENTED_EDGE('',*,*,#663,.F.);
#997=ORIENTED_EDGE('',*,*,#649,.T.);
#998=ORIENTED_EDGE('',*,*,#699,.T.);
#999=ORIENTED_EDGE('',*,*,#579,.T.);
#1000=ORIENTED_EDGE('',*,*,#701,.T.);
#1001=ORIENTED_EDGE('',*,*,#583,.T.);
#1002=ORIENTED_EDGE('',*,*,#595,.F.);
#1003=ORIENTED_EDGE('',*,*,#689,.F.);
#1004=ORIENTED_EDGE('',*,*,#703,.T.);
#1005=ORIENTED_EDGE('',*,*,#654,.F.);
#1006=ORIENTED_EDGE('',*,*,#666,.F.);
#1007=ORIENTED_EDGE('',*,*,#697,.F.);
#1008=PLANE('',#1111);
#1009=PLANE('',#1118);
#1010=PLANE('',#1128);
#1011=PLANE('',#1129);
#1012=PLANE('',#1130);
#1013=PLANE('',#1131);
#1014=PLANE('',#1132);
#1015=PLANE('',#1133);
#1016=PLANE('',#1134);
#1017=PLANE('',#1135);
#1018=PLANE('',#1136);
#1019=PLANE('',#1137);
#1020=PLANE('',#1140);
#1021=PLANE('',#1143);
#1022=PLANE('',#1146);
#1023=PLANE('',#1149);
#1024=PLANE('',#1150);
#1025=PLANE('',#1153);
#1026=PLANE('',#1156);
#1027=PLANE('',#1157);
#1028=PLANE('',#1158);
#1029=PLANE('',#1159);
#1030=PLANE('',#1160);
#1031=PLANE('',#1161);
#1032=PLANE('',#1173);
#1033=PLANE('',#1176);
#1034=PLANE('',#1179);
#1035=PLANE('',#1180);
#1036=PLANE('',#1183);
#1037=PLANE('',#1186);
#1038=PLANE('',#1198);
#1039=PLANE('',#1199);
#1040=PLANE('',#1200);
#1041=PLANE('',#1201);
#1042=PLANE('',#1202);
#1043=ADVANCED_FACE('',(#94),#1008,.F.);
#1044=ADVANCED_FACE('',(#95),#75,.F.);
#1045=ADVANCED_FACE('',(#96),#76,.F.);
#1046=ADVANCED_FACE('',(#97),#1009,.F.);
#1047=ADVANCED_FACE('',(#98),#77,.F.);
#1048=ADVANCED_FACE('',(#99),#78,.F.);
#1049=ADVANCED_FACE('',(#100),#79,.F.);
#1050=ADVANCED_FACE('',(#101),#1010,.T.);
#1051=ADVANCED_FACE('',(#102,#15,#16),#1011,.T.);
#1052=ADVANCED_FACE('',(#103,#17,#18),#1012,.T.);
#1053=ADVANCED_FACE('',(#104,#19,#20),#1013,.T.);
#1054=ADVANCED_FACE('',(#105,#21,#22),#1014,.T.);
#1055=ADVANCED_FACE('',(#106),#1015,.T.);
#1056=ADVANCED_FACE('',(#107),#1016,.T.);
#1057=ADVANCED_FACE('',(#108),#1017,.T.);
#1058=ADVANCED_FACE('',(#109),#1018,.F.);
#1059=ADVANCED_FACE('',(#110,#23),#1019,.F.);
#1060=ADVANCED_FACE('',(#111,#24),#1020,.F.);
#1061=ADVANCED_FACE('',(#112,#25),#1021,.F.);
#1062=ADVANCED_FACE('',(#113,#26),#1022,.F.);
#1063=ADVANCED_FACE('',(#114),#1023,.F.);
#1064=ADVANCED_FACE('',(#115,#27),#1024,.F.);
#1065=ADVANCED_FACE('',(#116,#28),#1025,.F.);
#1066=ADVANCED_FACE('',(#117),#1026,.F.);
#1067=ADVANCED_FACE('',(#118),#1027,.T.);
#1068=ADVANCED_FACE('',(#119),#1028,.T.);
#1069=ADVANCED_FACE('',(#120),#1029,.T.);
#1070=ADVANCED_FACE('',(#121),#1030,.T.);
#1071=ADVANCED_FACE('',(#122),#1031,.T.);
#1072=ADVANCED_FACE('',(#123),#80,.T.);
#1073=ADVANCED_FACE('',(#124),#81,.T.);
#1074=ADVANCED_FACE('',(#125),#82,.T.);
#1075=ADVANCED_FACE('',(#126),#83,.T.);
#1076=ADVANCED_FACE('',(#127),#84,.F.);
#1077=ADVANCED_FACE('',(#128),#85,.F.);
#1078=ADVANCED_FACE('',(#129),#86,.F.);
#1079=ADVANCED_FACE('',(#130,#29),#1032,.F.);
#1080=ADVANCED_FACE('',(#131,#30),#1033,.F.);
#1081=ADVANCED_FACE('',(#132),#1034,.F.);
#1082=ADVANCED_FACE('',(#133,#31),#1035,.F.);
#1083=ADVANCED_FACE('',(#134,#32),#1036,.F.);
#1084=ADVANCED_FACE('',(#135),#1037,.F.);
#1085=ADVANCED_FACE('',(#136),#87,.T.);
#1086=ADVANCED_FACE('',(#137),#88,.T.);
#1087=ADVANCED_FACE('',(#138),#89,.T.);
#1088=ADVANCED_FACE('',(#139),#90,.F.);
#1089=ADVANCED_FACE('',(#140),#91,.F.);
#1090=ADVANCED_FACE('',(#141),#92,.F.);
#1091=ADVANCED_FACE('',(#142),#93,.F.);
#1092=ADVANCED_FACE('',(#143),#1038,.T.);
#1093=ADVANCED_FACE('',(#144),#1039,.T.);
#1094=ADVANCED_FACE('',(#145),#1040,.T.);
#1095=ADVANCED_FACE('',(#146,#33,#34),#1041,.T.);
#1096=ADVANCED_FACE('',(#147,#35,#36),#1042,.F.);
#1097=CLOSED_SHELL('',(#1043,#1044,#1045,#1046,#1047,#1048,#1049,#1050,
#1051,#1052,#1053,#1054,#1055,#1056,#1057,#1058,#1059,#1060,#1061,#1062,
#1063,#1064,#1065,#1066,#1067,#1068,#1069,#1070,#1071,#1072,#1073,#1074,
#1075,#1076,#1077,#1078,#1079,#1080,#1081,#1082,#1083,#1084,#1085,#1086,
#1087,#1088,#1089,#1090,#1091,#1092,#1093,#1094,#1095,#1096));
#1098=DERIVED_UNIT_ELEMENT(#1100,1.);
#1099=DERIVED_UNIT_ELEMENT(#1815,3.);
#1100=(
MASS_UNIT()
NAMED_UNIT(*)
SI_UNIT(.KILO.,.GRAM.)
);
#1101=DERIVED_UNIT((#1098,#1099));
#1102=MEASURE_REPRESENTATION_ITEM('density measure',
POSITIVE_RATIO_MEASURE(7850.),#1101);
#1103=PROPERTY_DEFINITION_REPRESENTATION(#1108,#1105);
#1104=PROPERTY_DEFINITION_REPRESENTATION(#1109,#1106);
#1105=REPRESENTATION('material name',(#1107),#1812);
#1106=REPRESENTATION('density',(#1102),#1812);
#1107=DESCRIPTIVE_REPRESENTATION_ITEM('Steel','Steel');
#1108=PROPERTY_DEFINITION('material property','material name',#1822);
#1109=PROPERTY_DEFINITION('material property','density of part',#1822);
#1110=AXIS2_PLACEMENT_3D('placement',#1503,#1203,#1204);
#1111=AXIS2_PLACEMENT_3D('',#1504,#1205,#1206);
#1112=AXIS2_PLACEMENT_3D('',#1513,#1211,#1212);
#1113=AXIS2_PLACEMENT_3D('',#1515,#1213,#1214);
#1114=AXIS2_PLACEMENT_3D('',#1518,#1216,#1217);
#1115=AXIS2_PLACEMENT_3D('',#1519,#1218,#1219);
#1116=AXIS2_PLACEMENT_3D('',#1521,#1220,#1221);
#1117=AXIS2_PLACEMENT_3D('',#1524,#1223,#1224);
#1118=AXIS2_PLACEMENT_3D('',#1525,#1225,#1226);
#1119=AXIS2_PLACEMENT_3D('',#1534,#1231,#1232);
#1120=AXIS2_PLACEMENT_3D('',#1536,#1233,#1234);
#1121=AXIS2_PLACEMENT_3D('',#1539,#1236,#1237);
#1122=AXIS2_PLACEMENT_3D('',#1540,#1238,#1239);
#1123=AXIS2_PLACEMENT_3D('',#1542,#1240,#1241);
#1124=AXIS2_PLACEMENT_3D('',#1545,#1243,#1244);
#1125=AXIS2_PLACEMENT_3D('',#1546,#1245,#1246);
#1126=AXIS2_PLACEMENT_3D('',#1548,#1247,#1248);
#1127=AXIS2_PLACEMENT_3D('',#1551,#1250,#1251);
#1128=AXIS2_PLACEMENT_3D('',#1552,#1252,#1253);
#1129=AXIS2_PLACEMENT_3D('',#1558,#1257,#1258);
#1130=AXIS2_PLACEMENT_3D('',#1566,#1263,#1264);
#1131=AXIS2_PLACEMENT_3D('',#1572,#1268,#1269);
#1132=AXIS2_PLACEMENT_3D('',#1599,#1284,#1285);
#1133=AXIS2_PLACEMENT_3D('',#1604,#1289,#1290);
#1134=AXIS2_PLACEMENT_3D('',#1607,#1293,#1294);
#1135=AXIS2_PLACEMENT_3D('',#1608,#1295,#1296);
#1136=AXIS2_PLACEMENT_3D('',#1609,#1297,#1298);
#1137=AXIS2_PLACEMENT_3D('',#1618,#1303,#1304);
#1138=AXIS2_PLACEMENT_3D('',#1621,#1305,#1306);
#1139=AXIS2_PLACEMENT_3D('',#1627,#1310,#1311);
#1140=AXIS2_PLACEMENT_3D('',#1628,#1312,#1313);
#1141=AXIS2_PLACEMENT_3D('',#1631,#1314,#1315);
#1142=AXIS2_PLACEMENT_3D('',#1637,#1319,#1320);
#1143=AXIS2_PLACEMENT_3D('',#1638,#1321,#1322);
#1144=AXIS2_PLACEMENT_3D('',#1641,#1323,#1324);
#1145=AXIS2_PLACEMENT_3D('',#1650,#1329,#1330);
#1146=AXIS2_PLACEMENT_3D('',#1651,#1331,#1332);
#1147=AXIS2_PLACEMENT_3D('',#1654,#1333,#1334);
#1148=AXIS2_PLACEMENT_3D('',#1663,#1339,#1340);
#1149=AXIS2_PLACEMENT_3D('',#1664,#1341,#1342);
#1150=AXIS2_PLACEMENT_3D('',#1667,#1345,#1346);
#1151=AXIS2_PLACEMENT_3D('',#1670,#1347,#1348);
#1152=AXIS2_PLACEMENT_3D('',#1679,#1353,#1354);
#1153=AXIS2_PLACEMENT_3D('',#1680,#1355,#1356);
#1154=AXIS2_PLACEMENT_3D('',#1683,#1357,#1358);
#1155=AXIS2_PLACEMENT_3D('',#1692,#1363,#1364);
#1156=AXIS2_PLACEMENT_3D('',#1693,#1365,#1366);
#1157=AXIS2_PLACEMENT_3D('',#1696,#1369,#1370);
#1158=AXIS2_PLACEMENT_3D('',#1708,#1378,#1379);
#1159=AXIS2_PLACEMENT_3D('',#1714,#1383,#1384);
#1160=AXIS2_PLACEMENT_3D('',#1717,#1387,#1388);
#1161=AXIS2_PLACEMENT_3D('',#1723,#1392,#1393);
#1162=AXIS2_PLACEMENT_3D('',#1726,#1396,#1397);
#1163=AXIS2_PLACEMENT_3D('',#1727,#1398,#1399);
#1164=AXIS2_PLACEMENT_3D('',#1728,#1400,#1401);
#1165=AXIS2_PLACEMENT_3D('',#1729,#1402,#1403);
#1166=AXIS2_PLACEMENT_3D('',#1730,#1404,#1405);
#1167=AXIS2_PLACEMENT_3D('',#1731,#1406,#1407);
#1168=AXIS2_PLACEMENT_3D('',#1732,#1408,#1409);
#1169=AXIS2_PLACEMENT_3D('',#1735,#1411,#1412);
#1170=AXIS2_PLACEMENT_3D('',#1736,#1413,#1414);
#1171=AXIS2_PLACEMENT_3D('',#1738,#1416,#1417);
#1172=AXIS2_PLACEMENT_3D('',#1740,#1418,#1419);
#1173=AXIS2_PLACEMENT_3D('',#1742,#1421,#1422);
#1174=AXIS2_PLACEMENT_3D('',#1747,#1425,#1426);
#1175=AXIS2_PLACEMENT_3D('',#1749,#1427,#1428);
#1176=AXIS2_PLACEMENT_3D('',#1750,#1429,#1430);
#1177=AXIS2_PLACEMENT_3D('',#1754,#1432,#1433);
#1178=AXIS2_PLACEMENT_3D('',#1757,#1435,#1436);
#1179=AXIS2_PLACEMENT_3D('',#1758,#1437,#1438);
#1180=AXIS2_PLACEMENT_3D('',#1760,#1440,#1441);
#1181=AXIS2_PLACEMENT_3D('',#1765,#1444,#1445);
#1182=AXIS2_PLACEMENT_3D('',#1767,#1446,#1447);
#1183=AXIS2_PLACEMENT_3D('',#1768,#1448,#1449);
#1184=AXIS2_PLACEMENT_3D('',#1772,#1451,#1452);
#1185=AXIS2_PLACEMENT_3D('',#1775,#1454,#1455);
#1186=AXIS2_PLACEMENT_3D('',#1776,#1456,#1457);
#1187=AXIS2_PLACEMENT_3D('',#1778,#1459,#1460);
#1188=AXIS2_PLACEMENT_3D('',#1781,#1462,#1463);
#1189=AXIS2_PLACEMENT_3D('',#1782,#1464,#1465);
#1190=AXIS2_PLACEMENT_3D('',#1784,#1467,#1468);
#1191=AXIS2_PLACEMENT_3D('',#1786,#1469,#1470);
#1192=AXIS2_PLACEMENT_3D('',#1788,#1472,#1473);
#1193=AXIS2_PLACEMENT_3D('',#1790,#1475,#1476);
#1194=AXIS2_PLACEMENT_3D('',#1792,#1477,#1478);
#1195=AXIS2_PLACEMENT_3D('',#1794,#1480,#1481);
#1196=AXIS2_PLACEMENT_3D('',#1797,#1483,#1484);
#1197=AXIS2_PLACEMENT_3D('',#1798,#1485,#1486);
#1198=AXIS2_PLACEMENT_3D('',#1800,#1488,#1489);
#1199=AXIS2_PLACEMENT_3D('',#1803,#1492,#1493);
#1200=AXIS2_PLACEMENT_3D('',#1805,#1495,#1496);
#1201=AXIS2_PLACEMENT_3D('',#1808,#1499,#1500);
#1202=AXIS2_PLACEMENT_3D('',#1809,#1501,#1502);
#1203=DIRECTION('axis',(0.,0.,1.));
#1204=DIRECTION('refdir',(1.,0.,0.));
#1205=DIRECTION('center_axis',(-0.0554260876160487,0.,-0.998462792902959));
#1206=DIRECTION('ref_axis',(-0.998462792902959,0.,0.0554260876160487));
#1207=DIRECTION('',(0.998462792902959,5.03085464764459E-16,-0.0554260876160487));
#1208=DIRECTION('',(0.,1.,0.));
#1209=DIRECTION('',(-0.996932653097888,-0.0553411473824185,0.0553411473824181));
#1210=DIRECTION('',(0.,-1.,0.));
#1211=DIRECTION('center_axis',(0.,1.,0.));
#1212=DIRECTION('ref_axis',(1.,0.,0.));
#1213=DIRECTION('center_axis',(-0.0554260876160491,0.998462792902959,0.));
#1214=DIRECTION('ref_axis',(0.99846279290296,0.0554260876160491,0.));
#1215=DIRECTION('',(0.,1.,0.));
#1216=DIRECTION('center_axis',(5.03860001935349E-16,-1.,0.));
#1217=DIRECTION('ref_axis',(1.,0.,0.));
#1218=DIRECTION('center_axis',(0.,1.,0.));
#1219=DIRECTION('ref_axis',(1.,0.,0.));
#1220=DIRECTION('center_axis',(0.,1.,0.));
#1221=DIRECTION('ref_axis',(1.,0.,0.));
#1222=DIRECTION('',(0.,1.,0.));
#1223=DIRECTION('center_axis',(0.,-1.,0.));
#1224=DIRECTION('ref_axis',(1.,0.,0.));
#1225=DIRECTION('center_axis',(0.950287141598363,0.,0.311374932377049));
#1226=DIRECTION('ref_axis',(0.311374932377049,0.,-0.950287141598363));
#1227=DIRECTION('',(0.,-1.,0.));
#1228=DIRECTION('',(-0.311374932377049,0.,0.950287141598363));
#1229=DIRECTION('',(0.,1.,0.));
#1230=DIRECTION('',(0.311374932377049,0.,-0.950287141598363));
#1231=DIRECTION('center_axis',(0.,1.,0.));
#1232=DIRECTION('ref_axis',(1.,0.,0.));
#1233=DIRECTION('center_axis',(0.,-1.,0.));
#1234=DIRECTION('ref_axis',(1.,0.,0.));
#1235=DIRECTION('',(0.,1.,0.));
#1236=DIRECTION('center_axis',(0.,1.,0.));
#1237=DIRECTION('ref_axis',(1.,0.,0.));
#1238=DIRECTION('center_axis',(0.,1.,0.));
#1239=DIRECTION('ref_axis',(1.,0.,0.));
#1240=DIRECTION('center_axis',(-0.0554260876160491,0.998462792902959,0.));
#1241=DIRECTION('ref_axis',(0.99846279290296,0.0554260876160491,0.));
#1242=DIRECTION('',(0.,1.,0.));
#1243=DIRECTION('center_axis',(5.03860001935349E-16,-1.,0.));
#1244=DIRECTION('ref_axis',(1.,0.,0.));
#1245=DIRECTION('center_axis',(0.,1.,0.));
#1246=DIRECTION('ref_axis',(1.,0.,0.));
#1247=DIRECTION('center_axis',(0.,1.,0.));
#1248=DIRECTION('ref_axis',(1.,0.,0.));
#1249=DIRECTION('',(0.,1.,0.));
#1250=DIRECTION('center_axis',(0.,-1.,0.));
#1251=DIRECTION('ref_axis',(1.,0.,0.));
#1252=DIRECTION('center_axis',(-1.,0.,0.));
#1253=DIRECTION('ref_axis',(0.,-1.,0.));
#1254=DIRECTION('',(0.,0.,1.));
#1255=DIRECTION('',(0.,-1.,0.));
#1256=DIRECTION('',(0.,0.,1.));
#1257=DIRECTION('center_axis',(-5.03860001935349E-16,1.,0.));
#1258=DIRECTION('ref_axis',(-1.,-5.03860001935349E-16,0.));
#1259=DIRECTION('',(0.,0.,1.));
#1260=DIRECTION('',(1.,5.03860001935349E-16,0.));
#1261=DIRECTION('',(0.,0.,1.));
#1262=DIRECTION('',(-1.,-5.03860001935349E-16,0.));
#1263=DIRECTION('center_axis',(0.0554260876160491,-0.998462792902959,0.));
#1264=DIRECTION('ref_axis',(0.998462792902959,0.0554260876160491,0.));
#1265=DIRECTION('',(0.,0.,1.));
#1266=DIRECTION('',(-0.998462792902959,-0.0554260876160491,0.));
#1267=DIRECTION('',(0.,0.,1.));
#1268=DIRECTION('center_axis',(0.,-1.,0.));
#1269=DIRECTION('ref_axis',(1.,0.,0.));
#1270=DIRECTION('',(1.,0.,0.));
#1271=DIRECTION('',(0.,0.,1.));
#1272=DIRECTION('',(1.,0.,0.));
#1273=DIRECTION('',(0.,0.,-1.));
#1274=DIRECTION('',(-1.,0.,0.));
#1275=DIRECTION('',(0.,0.,1.));
#1276=DIRECTION('',(1.,0.,0.));
#1277=DIRECTION('',(0.,0.,-1.));
#1278=DIRECTION('',(-1.,0.,0.));
#1279=DIRECTION('',(0.,0.,1.));
#1280=DIRECTION('',(1.,0.,0.));
#1281=DIRECTION('',(1.,0.,0.));
#1282=DIRECTION('',(0.,0.,1.));
#1283=DIRECTION('',(1.,0.,0.));
#1284=DIRECTION('center_axis',(0.,1.,0.));
#1285=DIRECTION('ref_axis',(-1.,0.,0.));
#1286=DIRECTION('',(-1.,0.,0.));
#1287=DIRECTION('',(0.,0.,1.));
#1288=DIRECTION('',(1.,0.,0.));
#1289=DIRECTION('center_axis',(1.,0.,0.));
#1290=DIRECTION('ref_axis',(0.,1.,0.));
#1291=DIRECTION('',(0.,-1.,0.));
#1292=DIRECTION('',(0.,1.,0.));
#1293=DIRECTION('center_axis',(0.,0.,1.));
#1294=DIRECTION('ref_axis',(1.,0.,0.));
#1295=DIRECTION('center_axis',(0.,0.,1.));
#1296=DIRECTION('ref_axis',(1.,0.,0.));
#1297=DIRECTION('center_axis',(1.,-1.44440349575454E-13,0.));
#1298=DIRECTION('ref_axis',(0.,0.,-1.));
#1299=DIRECTION('',(0.,0.,1.));
#1300=DIRECTION('',(1.44440349575454E-13,1.,0.));
#1301=DIRECTION('',(0.,0.,-1.));
#1302=DIRECTION('',(-1.44440349575454E-13,-1.,0.));
#1303=DIRECTION('center_axis',(0.,0.,-1.));
#1304=DIRECTION('ref_axis',(0.,1.,0.));
#1305=DIRECTION('center_axis',(0.,0.,-1.));
#1306=DIRECTION('ref_axis',(1.,0.,0.));
#1307=DIRECTION('',(0.,1.,0.));
#1308=DIRECTION('',(1.,0.,0.));
#1309=DIRECTION('',(1.,0.,0.));
#1310=DIRECTION('center_axis',(0.,0.,1.));
#1311=DIRECTION('ref_axis',(1.,0.,0.));
#1312=DIRECTION('center_axis',(0.,0.,1.));
#1313=DIRECTION('ref_axis',(0.,-1.,0.));
#1314=DIRECTION('center_axis',(0.,0.,1.));
#1315=DIRECTION('ref_axis',(1.,0.,0.));
#1316=DIRECTION('',(-1.,0.,0.));
#1317=DIRECTION('',(1.,0.,0.));
#1318=DIRECTION('',(0.,-1.,0.));
#1319=DIRECTION('center_axis',(0.,0.,-1.));
#1320=DIRECTION('ref_axis',(1.,0.,0.));
#1321=DIRECTION('center_axis',(0.,0.,-1.));
#1322=DIRECTION('ref_axis',(0.,1.,0.));
#1323=DIRECTION('center_axis',(0.,0.,-1.));
#1324=DIRECTION('ref_axis',(1.,0.,0.));
#1325=DIRECTION('',(0.,1.,0.));
#1326=DIRECTION('',(1.,0.,0.));
#1327=DIRECTION('',(1.44440349575454E-13,1.,0.));
#1328=DIRECTION('',(1.,0.,0.));
#1329=DIRECTION('center_axis',(0.,0.,1.));
#1330=DIRECTION('ref_axis',(1.,0.,0.));
#1331=DIRECTION('center_axis',(0.,0.,1.));
#1332=DIRECTION('ref_axis',(0.,-1.,0.));
#1333=DIRECTION('center_axis',(0.,0.,1.));
#1334=DIRECTION('ref_axis',(1.,0.,0.));
#1335=DIRECTION('',(-1.,0.,0.));
#1336=DIRECTION('',(-1.44440349575454E-13,-1.,0.));
#1337=DIRECTION('',(1.,0.,0.));
#1338=DIRECTION('',(0.,-1.,0.));
#1339=DIRECTION('center_axis',(0.,0.,-1.));
#1340=DIRECTION('ref_axis',(1.,0.,0.));
#1341=DIRECTION('center_axis',(1.,-1.44440349575454E-13,0.));
#1342=DIRECTION('ref_axis',(0.,0.,-1.));
#1343=DIRECTION('',(0.,0.,1.));
#1344=DIRECTION('',(0.,0.,-1.));
#1345=DIRECTION('center_axis',(0.,0.,-1.));
#1346=DIRECTION('ref_axis',(0.,1.,0.));
#1347=DIRECTION('center_axis',(0.,0.,-1.));
#1348=DIRECTION('ref_axis',(1.,0.,0.));
#1349=DIRECTION('',(0.,1.,0.));
#1350=DIRECTION('',(1.,0.,0.));
#1351=DIRECTION('',(1.44440349575454E-13,1.,0.));
#1352=DIRECTION('',(1.,0.,0.));
#1353=DIRECTION('center_axis',(0.,0.,1.));
#1354=DIRECTION('ref_axis',(1.,0.,0.));
#1355=DIRECTION('center_axis',(0.,0.,1.));
#1356=DIRECTION('ref_axis',(0.,-1.,0.));
#1357=DIRECTION('center_axis',(0.,0.,1.));
#1358=DIRECTION('ref_axis',(1.,0.,0.));
#1359=DIRECTION('',(-1.,0.,0.));
#1360=DIRECTION('',(-1.44440349575454E-13,-1.,0.));
#1361=DIRECTION('',(1.,0.,0.));
#1362=DIRECTION('',(0.,-1.,0.));
#1363=DIRECTION('center_axis',(0.,0.,-1.));
#1364=DIRECTION('ref_axis',(1.,0.,0.));
#1365=DIRECTION('center_axis',(1.,-1.44440349575454E-13,0.));
#1366=DIRECTION('ref_axis',(0.,0.,-1.));
#1367=DIRECTION('',(0.,0.,1.));
#1368=DIRECTION('',(-7.28913644470797E-30,-5.04646829375071E-17,-1.));
#1369=DIRECTION('center_axis',(0.,1.,0.));
#1370=DIRECTION('ref_axis',(-1.,0.,0.));
#1371=DIRECTION('',(0.,0.,1.));
#1372=DIRECTION('',(-1.,0.,0.));
#1373=DIRECTION('',(0.,0.,1.));
#1374=DIRECTION('',(1.,0.,0.));
#1375=DIRECTION('',(0.,0.,1.));
#1376=DIRECTION('',(0.,0.,1.));
#1377=DIRECTION('',(0.,0.,1.));
#1378=DIRECTION('center_axis',(-1.,0.,0.));
#1379=DIRECTION('ref_axis',(0.,-1.,0.));
#1380=DIRECTION('',(0.,0.,1.));
#1381=DIRECTION('',(0.,-1.,0.));
#1382=DIRECTION('',(0.,0.,1.));
#1383=DIRECTION('center_axis',(-1.,0.,0.));
#1384=DIRECTION('ref_axis',(0.,-1.,0.));
#1385=DIRECTION('',(0.,0.,1.));
#1386=DIRECTION('',(0.,0.,1.));
#1387=DIRECTION('center_axis',(-1.,0.,0.));
#1388=DIRECTION('ref_axis',(0.,-1.,0.));
#1389=DIRECTION('',(0.,0.,1.));
#1390=DIRECTION('',(0.,-1.,0.));
#1391=DIRECTION('',(0.,0.,1.));
#1392=DIRECTION('center_axis',(-1.,0.,0.));
#1393=DIRECTION('ref_axis',(0.,-1.,0.));
#1394=DIRECTION('',(0.,0.,1.));
#1395=DIRECTION('',(0.,0.,1.));
#1396=DIRECTION('center_axis',(0.,0.,1.));
#1397=DIRECTION('ref_axis',(1.,0.,0.));
#1398=DIRECTION('center_axis',(0.,0.,1.));
#1399=DIRECTION('ref_axis',(1.,0.,0.));
#1400=DIRECTION('center_axis',(0.,0.,1.));
#1401=DIRECTION('ref_axis',(1.,0.,0.));
#1402=DIRECTION('center_axis',(0.,0.,1.));
#1403=DIRECTION('ref_axis',(1.,0.,0.));
#1404=DIRECTION('center_axis',(0.,0.,1.));
#1405=DIRECTION('ref_axis',(1.,0.,0.));
#1406=DIRECTION('center_axis',(0.,0.,1.));
#1407=DIRECTION('ref_axis',(1.,0.,0.));
#1408=DIRECTION('center_axis',(0.,0.,1.));
#1409=DIRECTION('ref_axis',(1.,0.,0.));
#1410=DIRECTION('',(0.,0.,-1.));
#1411=DIRECTION('center_axis',(0.,0.,-1.));
#1412=DIRECTION('ref_axis',(1.,0.,0.));
#1413=DIRECTION('center_axis',(0.,0.,1.));
#1414=DIRECTION('ref_axis',(1.,0.,0.));
#1415=DIRECTION('',(0.,0.,-1.));
#1416=DIRECTION('center_axis',(0.,0.,1.));
#1417=DIRECTION('ref_axis',(1.,0.,0.));
#1418=DIRECTION('center_axis',(0.,0.,-1.));
#1419=DIRECTION('ref_axis',(1.,0.,0.));
#1420=DIRECTION('',(0.,0.,-1.));
#1421=DIRECTION('center_axis',(0.,0.,1.));
#1422=DIRECTION('ref_axis',(1.,0.,0.));
#1423=DIRECTION('',(-1.,2.72841100302828E-16,0.));
#1424=DIRECTION('',(0.,1.,0.));
#1425=DIRECTION('center_axis',(0.,0.,1.));
#1426=DIRECTION('ref_axis',(1.,0.,0.));
#1427=DIRECTION('center_axis',(0.,0.,-1.));
#1428=DIRECTION('ref_axis',(1.,0.,0.));
#1429=DIRECTION('center_axis',(0.,0.,-1.));
#1430=DIRECTION('ref_axis',(-1.,0.,0.));
#1431=DIRECTION('',(1.,-2.72841100302828E-16,0.));
#1432=DIRECTION('center_axis',(0.,0.,-1.));
#1433=DIRECTION('ref_axis',(1.,0.,0.));
#1434=DIRECTION('',(0.,1.,0.));
#1435=DIRECTION('center_axis',(0.,0.,1.));
#1436=DIRECTION('ref_axis',(1.,0.,0.));
#1437=DIRECTION('center_axis',(1.,0.,0.));
#1438=DIRECTION('ref_axis',(0.,0.,-1.));
#1439=DIRECTION('',(0.,0.,1.));
#1440=DIRECTION('center_axis',(0.,0.,1.));
#1441=DIRECTION('ref_axis',(1.,0.,0.));
#1442=DIRECTION('',(-1.,2.72841100302828E-16,0.));
#1443=DIRECTION('',(0.,1.,0.));
#1444=DIRECTION('center_axis',(0.,0.,1.));
#1445=DIRECTION('ref_axis',(1.,0.,0.));
#1446=DIRECTION('center_axis',(0.,0.,-1.));
#1447=DIRECTION('ref_axis',(1.,0.,0.));
#1448=DIRECTION('center_axis',(0.,0.,-1.));
#1449=DIRECTION('ref_axis',(-1.,0.,0.));
#1450=DIRECTION('',(1.,-2.72841100302828E-16,0.));
#1451=DIRECTION('center_axis',(0.,0.,-1.));
#1452=DIRECTION('ref_axis',(1.,0.,0.));
#1453=DIRECTION('',(0.,1.,0.));
#1454=DIRECTION('center_axis',(0.,0.,1.));
#1455=DIRECTION('ref_axis',(1.,0.,0.));
#1456=DIRECTION('center_axis',(1.,0.,0.));
#1457=DIRECTION('ref_axis',(0.,0.,-1.));
#1458=DIRECTION('',(0.,0.,1.));
#1459=DIRECTION('center_axis',(0.,0.,1.));
#1460=DIRECTION('ref_axis',(-1.,1.22464679914735E-16,0.));
#1461=DIRECTION('',(0.,0.,1.));
#1462=DIRECTION('center_axis',(0.,0.,1.));
#1463=DIRECTION('ref_axis',(1.,0.,0.));
#1464=DIRECTION('center_axis',(0.,0.,1.));
#1465=DIRECTION('ref_axis',(-1.,1.22464679914735E-16,0.));
#1466=DIRECTION('',(0.,0.,1.));
#1467=DIRECTION('center_axis',(0.,0.,1.));
#1468=DIRECTION('ref_axis',(-1.,1.22464679914735E-16,0.));
#1469=DIRECTION('center_axis',(0.,0.,1.));
#1470=DIRECTION('ref_axis',(1.,0.,0.));
#1471=DIRECTION('',(0.,0.,1.));
#1472=DIRECTION('center_axis',(0.,0.,1.));
#1473=DIRECTION('ref_axis',(1.,0.,0.));
#1474=DIRECTION('',(0.,0.,-1.));
#1475=DIRECTION('center_axis',(0.,0.,1.));
#1476=DIRECTION('ref_axis',(1.,0.,0.));
#1477=DIRECTION('center_axis',(0.,0.,-1.));
#1478=DIRECTION('ref_axis',(1.,0.,0.));
#1479=DIRECTION('',(0.,0.,-1.));
#1480=DIRECTION('center_axis',(0.,0.,1.));
#1481=DIRECTION('ref_axis',(1.,0.,0.));
#1482=DIRECTION('',(0.,0.,-1.));
#1483=DIRECTION('center_axis',(0.,0.,-1.));
#1484=DIRECTION('ref_axis',(1.,0.,0.));
#1485=DIRECTION('center_axis',(0.,0.,1.));
#1486=DIRECTION('ref_axis',(1.,0.,0.));
#1487=DIRECTION('',(0.,0.,-1.));
#1488=DIRECTION('center_axis',(1.,-1.44440349575454E-13,0.));
#1489=DIRECTION('ref_axis',(1.44440349575454E-13,1.,0.));
#1490=DIRECTION('',(-1.44440349575454E-13,-1.,0.));
#1491=DIRECTION('',(1.44440349575454E-13,1.,0.));
#1492=DIRECTION('center_axis',(1.,0.,0.));
#1493=DIRECTION('ref_axis',(0.,1.,0.));
#1494=DIRECTION('',(0.,-1.,0.));
#1495=DIRECTION('center_axis',(2.72841100302828E-16,1.,0.));
#1496=DIRECTION('ref_axis',(-1.,2.72841100302828E-16,0.));
#1497=DIRECTION('',(-1.,2.72841100302828E-16,0.));
#1498=DIRECTION('',(1.,-2.72841100302828E-16,0.));
#1499=DIRECTION('center_axis',(0.,0.,1.));
#1500=DIRECTION('ref_axis',(1.,0.,0.));
#1501=DIRECTION('center_axis',(0.,0.,1.));
#1502=DIRECTION('ref_axis',(1.,0.,0.));
#1503=CARTESIAN_POINT('',(0.,0.,0.));
#1504=CARTESIAN_POINT('Origin',(102.045714551192,-11.,85.));
#1505=CARTESIAN_POINT('',(48.0027808435351,-6.,88.));
#1506=CARTESIAN_POINT('',(102.045714551192,-5.99999999999997,85.));
#1507=CARTESIAN_POINT('',(104.397702216426,-5.99999999999997,84.8694378244921));
#1508=CARTESIAN_POINT('',(48.0027808435351,-11.,88.));
#1509=CARTESIAN_POINT('',(48.002780843535,2.30223961122344,88.));
#1510=CARTESIAN_POINT('',(102.045714551192,-7.99999999999997,85.));
#1511=CARTESIAN_POINT('',(77.3690320649944,-9.36983768977188,86.3698376897719));
#1512=CARTESIAN_POINT('',(102.045714551192,-9.49999999999999,85.));
#1513=CARTESIAN_POINT('Origin',(90.0457145511917,-11.,70.));
#1514=CARTESIAN_POINT('',(88.0457145511917,-8.77715988231128,70.));
#1515=CARTESIAN_POINT('Origin',(90.0457145511917,-8.6661370419811,70.));
#1516=CARTESIAN_POINT('',(88.0457145511917,-5.99999999999997,70.));
#1517=CARTESIAN_POINT('',(88.0457145511917,-11.,70.));
#1518=CARTESIAN_POINT('Origin',(90.0457145511917,-5.99999999999997,70.));
#1519=CARTESIAN_POINT('Origin',(25.0529555511917,-11.,110.));
#1520=CARTESIAN_POINT('',(23.0529555511917,-11.,110.));
#1521=CARTESIAN_POINT('Origin',(25.0529555511917,-11.,110.));
#1522=CARTESIAN_POINT('',(23.0529555511917,-6.,110.));
#1523=CARTESIAN_POINT('',(23.0529555511917,-11.,110.));
#1524=CARTESIAN_POINT('Origin',(25.0529555511917,-6.,110.));
#1525=CARTESIAN_POINT('Origin',(7.55295555119169,-11.,118.));
#1526=CARTESIAN_POINT('',(12.5529555511917,-6.,102.740468117587));
#1527=CARTESIAN_POINT('',(12.5529555511917,-11.,102.740468117587));
#1528=CARTESIAN_POINT('',(12.5529555511917,-8.5,102.740468117587));
#1529=CARTESIAN_POINT('',(15.878960546786,-6.,92.5898122633197));
#1530=CARTESIAN_POINT('',(13.6880905669754,-6.,99.2761423247477));
#1531=CARTESIAN_POINT('',(15.878960546786,-11.,92.5898122633197));
#1532=CARTESIAN_POINT('',(15.878960546786,-11.,92.5898122633197));
#1533=CARTESIAN_POINT('',(24.6446496815699,-11.,65.8377496986081));
#1534=CARTESIAN_POINT('Origin',(12.5529555511917,-11.,91.5));
#1535=CARTESIAN_POINT('',(12.5529555511917,-6.,88.));
#1536=CARTESIAN_POINT('Origin',(12.5529555511917,-6.,91.5));
#1537=CARTESIAN_POINT('',(12.5529555511917,-11.,88.));
#1538=CARTESIAN_POINT('',(12.5529555511917,4.80223961122344,88.));
#1539=CARTESIAN_POINT('Origin',(12.5529555511917,-11.,91.5));
#1540=CARTESIAN_POINT('Origin',(63.0027808435351,-11.,70.));
#1541=CARTESIAN_POINT('',(61.0027808435351,-10.2783515378538,70.));
#1542=CARTESIAN_POINT('Origin',(63.0027808435351,-10.1673286975236,70.));
#1543=CARTESIAN_POINT('',(61.0027808435351,-5.99999999999997,70.));
#1544=CARTESIAN_POINT('',(61.0027808435351,-11.,70.));
#1545=CARTESIAN_POINT('Origin',(63.0027808435351,-5.99999999999997,70.));
#1546=CARTESIAN_POINT('Origin',(25.0529555511917,-11.,96.));
#1547=CARTESIAN_POINT('',(23.0529555511917,-11.,96.));
#1548=CARTESIAN_POINT('Origin',(25.0529555511917,-11.,96.));
#1549=CARTESIAN_POINT('',(23.0529555511917,-6.,96.));
#1550=CARTESIAN_POINT('',(23.0529555511917,-11.,96.));
#1551=CARTESIAN_POINT('Origin',(25.0529555511917,-6.,96.));
#1552=CARTESIAN_POINT('Origin',(12.5529555511917,-6.,88.));
#1553=CARTESIAN_POINT('',(12.5529555511917,-11.,118.));
#1554=CARTESIAN_POINT('',(12.5529555511917,-11.,88.));
#1555=CARTESIAN_POINT('',(12.5529555511917,-6.,118.));
#1556=CARTESIAN_POINT('',(12.5529555511917,-6.,118.));
#1557=CARTESIAN_POINT('',(12.5529555511917,-6.,88.));
#1558=CARTESIAN_POINT('Origin',(102.045714551192,-5.99999999999997,0.));
#1559=CARTESIAN_POINT('',(102.045714551192,-5.99999999999997,0.));
#1560=CARTESIAN_POINT('',(102.045714551192,-5.99999999999997,0.));
#1561=CARTESIAN_POINT('',(42.5529555511917,-6.,0.));
#1562=CARTESIAN_POINT('',(42.5529555511917,-6.,0.));
#1563=CARTESIAN_POINT('',(42.5529555511917,-6.,88.));
#1564=CARTESIAN_POINT('',(42.5529555511917,-6.,0.));
#1565=CARTESIAN_POINT('',(42.5529555511917,-6.,88.));
#1566=CARTESIAN_POINT('Origin',(48.0027808435351,-11.,0.));
#1567=CARTESIAN_POINT('',(48.0027808435351,-11.,0.));
#1568=CARTESIAN_POINT('',(48.0027808435351,-11.,0.));
#1569=CARTESIAN_POINT('',(102.045714551192,-7.99999999999997,0.));
#1570=CARTESIAN_POINT('',(102.045714551192,-7.99999999999997,0.));
#1571=CARTESIAN_POINT('',(102.045714551192,-7.99999999999997,0.));
#1572=CARTESIAN_POINT('Origin',(0.,-11.,0.));
#1573=CARTESIAN_POINT('',(0.,-11.,88.));
#1574=CARTESIAN_POINT('',(0.,-11.,88.));
#1575=CARTESIAN_POINT('',(0.,-11.,81.));
#1576=CARTESIAN_POINT('',(0.,-11.,0.));
#1577=CARTESIAN_POINT('',(7.55295550099791,-11.,81.));
#1578=CARTESIAN_POINT('',(-11.2565784379808,-11.,81.));
#1579=CARTESIAN_POINT('',(7.55295550099791,-11.,52.5));
#1580=CARTESIAN_POINT('',(7.55295550099791,-11.,40.5));
#1581=CARTESIAN_POINT('',(0.,-11.,52.5));
#1582=CARTESIAN_POINT('',(3.77647775049895,-11.,52.5));
#1583=CARTESIAN_POINT('',(0.,-11.,35.5));
#1584=CARTESIAN_POINT('',(0.,-11.,0.));
#1585=CARTESIAN_POINT('',(7.55295550099791,-11.,35.5));
#1586=CARTESIAN_POINT('',(-11.0342883294609,-11.,35.5));
#1587=CARTESIAN_POINT('',(7.55295550099791,-11.,7.));
#1588=CARTESIAN_POINT('',(7.55295550099791,-11.,17.75));
#1589=CARTESIAN_POINT('',(0.,-11.,7.));
#1590=CARTESIAN_POINT('',(3.77647775049895,-11.,7.));
#1591=CARTESIAN_POINT('',(0.,-11.,0.));
#1592=CARTESIAN_POINT('',(0.,-11.,0.));
#1593=CARTESIAN_POINT('',(0.,-11.,0.));
#1594=CARTESIAN_POINT('',(42.5529555511917,-11.,88.));
#1595=CARTESIAN_POINT('',(0.,-11.,88.));
#1596=CARTESIAN_POINT('',(42.5529555511917,-11.,118.));
#1597=CARTESIAN_POINT('',(42.5529555511917,-11.,88.));
#1598=CARTESIAN_POINT('',(12.5529555511917,-11.,118.));
#1599=CARTESIAN_POINT('Origin',(42.5529555511917,-6.,88.));
#1600=CARTESIAN_POINT('',(42.5529555511917,-6.,118.));
#1601=CARTESIAN_POINT('',(42.5529555511917,-6.,118.));
#1602=CARTESIAN_POINT('',(42.5529555511917,-6.,88.));
#1603=CARTESIAN_POINT('',(44.0379064133938,-6.,88.));
#1604=CARTESIAN_POINT('Origin',(42.5529555511917,-11.,88.));
#1605=CARTESIAN_POINT('',(42.5529555511917,2.30223961122344,88.));
#1606=CARTESIAN_POINT('',(42.5529555511917,-11.,118.));
#1607=CARTESIAN_POINT('Origin',(27.5529555511917,-8.5,118.));
#1608=CARTESIAN_POINT('Origin',(45.5228572755958,15.6044792224469,88.));
#1609=CARTESIAN_POINT('Origin',(38.5529555511966,27.8544792224475,44.));
#1610=CARTESIAN_POINT('',(38.5529555511987,42.2089584448938,74.));
#1611=CARTESIAN_POINT('',(38.5529555511987,42.2089584448938,84.));
#1612=CARTESIAN_POINT('',(38.5529555511986,42.2089584448938,22.));
#1613=CARTESIAN_POINT('',(38.5529555511941,11.,74.));
#1614=CARTESIAN_POINT('',(38.5529555511954,19.4272396112219,74.));
#1615=CARTESIAN_POINT('',(38.5529555511941,11.,84.));
#1616=CARTESIAN_POINT('',(38.5529555511941,11.,64.));
#1617=CARTESIAN_POINT('',(38.5529555511978,36.2817188336687,84.));
#1618=CARTESIAN_POINT('Origin',(12.5529555009979,11.,74.));
#1619=CARTESIAN_POINT('',(12.5529555009979,32.2089584448938,74.));
#1620=CARTESIAN_POINT('',(22.5529555511987,42.2089584448938,74.));
#1621=CARTESIAN_POINT('Origin',(22.5529555009979,32.2089584448938,74.));
#1622=CARTESIAN_POINT('',(12.5529555009979,11.,74.));
#1623=CARTESIAN_POINT('',(12.5529555009979,21.6044792224469,74.));
#1624=CARTESIAN_POINT('',(12.5529555009979,11.,74.));
#1625=CARTESIAN_POINT('',(27.5529555260983,42.2089584448938,74.));
#1626=CARTESIAN_POINT('',(18.5529555009979,32.2089584448938,74.));
#1627=CARTESIAN_POINT('Origin',(22.5529555009979,32.2089584448938,74.));
#1628=CARTESIAN_POINT('Origin',(12.5529555009979,44.7089584448938,84.));
#1629=CARTESIAN_POINT('',(22.5529555511987,42.2089584448938,84.));
#1630=CARTESIAN_POINT('',(12.5529555009979,32.2089584448938,84.));
#1631=CARTESIAN_POINT('Origin',(22.5529555009979,32.2089584448938,84.));
#1632=CARTESIAN_POINT('',(27.5529555260983,42.2089584448938,84.));
#1633=CARTESIAN_POINT('',(12.5529555009979,11.,84.));
#1634=CARTESIAN_POINT('',(12.5529555009979,11.,84.));
#1635=CARTESIAN_POINT('',(12.5529555009979,38.4589584448938,84.));
#1636=CARTESIAN_POINT('',(18.5529555009979,32.2089584448938,84.));
#1637=CARTESIAN_POINT('Origin',(22.5529555009979,32.2089584448938,84.));
#1638=CARTESIAN_POINT('Origin',(12.5529555009979,11.,21.));
#1639=CARTESIAN_POINT('',(12.5529555009979,32.2089584448938,21.));
#1640=CARTESIAN_POINT('',(22.5529555511987,42.2089584448938,21.));
#1641=CARTESIAN_POINT('Origin',(22.5529555009979,32.2089584448938,21.));
#1642=CARTESIAN_POINT('',(12.5529555009979,11.,21.));
#1643=CARTESIAN_POINT('',(12.5529555009979,21.6044792224469,21.));
#1644=CARTESIAN_POINT('',(38.5529555511941,11.,21.));
#1645=CARTESIAN_POINT('',(12.5529555009979,11.,21.));
#1646=CARTESIAN_POINT('',(38.5529555511987,42.2089584448938,21.));
#1647=CARTESIAN_POINT('',(38.5529555511954,19.4272396112219,21.));
#1648=CARTESIAN_POINT('',(27.5529555260983,42.2089584448938,21.));
#1649=CARTESIAN_POINT('',(18.5529555009979,32.2089584448938,21.));
#1650=CARTESIAN_POINT('Origin',(22.5529555009979,32.2089584448938,21.));
#1651=CARTESIAN_POINT('Origin',(12.5529555009979,44.7089584448938,67.));
#1652=CARTESIAN_POINT('',(22.5529555511987,42.2089584448938,67.));
#1653=CARTESIAN_POINT('',(12.5529555009979,32.2089584448938,67.));
#1654=CARTESIAN_POINT('Origin',(22.5529555009979,32.2089584448938,67.));
#1655=CARTESIAN_POINT('',(38.5529555511987,42.2089584448938,67.));
#1656=CARTESIAN_POINT('',(27.5529555260983,42.2089584448938,67.));
#1657=CARTESIAN_POINT('',(38.5529555511941,11.,67.));
#1658=CARTESIAN_POINT('',(38.5529555511978,36.2817188336688,67.));
#1659=CARTESIAN_POINT('',(12.5529555009979,11.,67.));
#1660=CARTESIAN_POINT('',(12.5529555009979,11.,67.));
#1661=CARTESIAN_POINT('',(12.5529555009979,38.4589584448938,67.));
#1662=CARTESIAN_POINT('',(18.5529555009979,32.2089584448938,67.));
#1663=CARTESIAN_POINT('Origin',(22.5529555009979,32.2089584448938,67.));
#1664=CARTESIAN_POINT('Origin',(38.5529555511966,27.8544792224475,44.));
#1665=CARTESIAN_POINT('',(38.5529555511986,42.2089584448938,22.));
#1666=CARTESIAN_POINT('',(38.5529555511941,11.,55.5));
#1667=CARTESIAN_POINT('Origin',(12.5529555009979,11.,4.00000000000001));
#1668=CARTESIAN_POINT('',(12.5529555009979,32.2089584448938,4.00000000000001));
#1669=CARTESIAN_POINT('',(22.5529555511987,42.2089584448938,4.00000000000001));
#1670=CARTESIAN_POINT('Origin',(22.5529555009979,32.2089584448938,4.00000000000001));
#1671=CARTESIAN_POINT('',(12.5529555009979,11.,4.00000000000001));
#1672=CARTESIAN_POINT('',(12.5529555009979,21.6044792224469,4.00000000000001));
#1673=CARTESIAN_POINT('',(38.5529555511941,11.,4.00000000000001));
#1674=CARTESIAN_POINT('',(12.5529555009979,11.,4.00000000000001));
#1675=CARTESIAN_POINT('',(38.5529555511987,42.2089584448938,4.00000000000001));
#1676=CARTESIAN_POINT('',(38.5529555511954,19.4272396112219,4.00000000000001));
#1677=CARTESIAN_POINT('',(27.5529555260983,42.2089584448938,4.00000000000001));
#1678=CARTESIAN_POINT('',(18.5529555009979,32.2089584448938,4.00000000000001));
#1679=CARTESIAN_POINT('Origin',(22.5529555009979,32.2089584448938,4.00000000000001));
#1680=CARTESIAN_POINT('Origin',(12.5529555009979,44.7089584448938,14.));
#1681=CARTESIAN_POINT('',(22.5529555511987,42.2089584448938,14.));
#1682=CARTESIAN_POINT('',(12.5529555009979,32.2089584448938,14.));
#1683=CARTESIAN_POINT('Origin',(22.5529555009979,32.2089584448938,14.));
#1684=CARTESIAN_POINT('',(38.5529555511987,42.2089584448938,14.));
#1685=CARTESIAN_POINT('',(27.5529555260983,42.2089584448938,14.));
#1686=CARTESIAN_POINT('',(38.5529555511941,11.,14.));
#1687=CARTESIAN_POINT('',(38.5529555511978,36.2817188336687,14.));
#1688=CARTESIAN_POINT('',(12.5529555009979,11.,14.));
#1689=CARTESIAN_POINT('',(12.5529555009979,11.,14.));
#1690=CARTESIAN_POINT('',(12.5529555009979,38.4589584448938,14.));
#1691=CARTESIAN_POINT('',(18.5529555009979,32.2089584448938,14.));
#1692=CARTESIAN_POINT('Origin',(22.5529555009979,32.2089584448938,14.));
#1693=CARTESIAN_POINT('Origin',(38.5529555511966,27.8544792224475,44.));
#1694=CARTESIAN_POINT('',(38.5529555511986,42.2089584448938,22.));
#1695=CARTESIAN_POINT('',(38.5529555511941,11.,29.));
#1696=CARTESIAN_POINT('Origin',(42.5529555511987,42.2089584448938,0.));
#1697=CARTESIAN_POINT('',(22.5529555511987,42.2089584448938,88.));
#1698=CARTESIAN_POINT('',(22.5529555511987,42.2089584448938,0.));
#1699=CARTESIAN_POINT('',(42.5529555511987,42.2089584448938,88.));
#1700=CARTESIAN_POINT('',(22.5529555511987,42.2089584448938,88.));
#1701=CARTESIAN_POINT('',(42.5529555511987,42.2089584448938,0.));
#1702=CARTESIAN_POINT('',(42.5529555511987,42.2089584448938,0.));
#1703=CARTESIAN_POINT('',(22.5529555511987,42.2089584448938,0.));
#1704=CARTESIAN_POINT('',(22.5529555511987,42.2089584448938,0.));
#1705=CARTESIAN_POINT('',(22.5529555511987,42.2089584448938,0.));
#1706=CARTESIAN_POINT('',(22.5529555511987,42.2089584448938,0.));
#1707=CARTESIAN_POINT('',(22.5529555511987,42.2089584448938,0.));
#1708=CARTESIAN_POINT('Origin',(12.5529555009979,32.2089584448938,0.));
#1709=CARTESIAN_POINT('',(12.5529555009979,32.2089584448938,0.));
#1710=CARTESIAN_POINT('',(12.5529555009979,32.2089584448938,0.));
#1711=CARTESIAN_POINT('',(12.5529555009979,11.,0.));
#1712=CARTESIAN_POINT('',(12.5529555009979,32.2089584448938,0.));
#1713=CARTESIAN_POINT('',(12.5529555009979,11.,0.));
#1714=CARTESIAN_POINT('Origin',(12.5529555009979,32.2089584448938,0.));
#1715=CARTESIAN_POINT('',(12.5529555009979,32.2089584448938,0.));
#1716=CARTESIAN_POINT('',(12.5529555009979,11.,0.));
#1717=CARTESIAN_POINT('Origin',(12.5529555009979,32.2089584448938,0.));
#1718=CARTESIAN_POINT('',(12.5529555009979,11.,88.));
#1719=CARTESIAN_POINT('',(12.5529555009979,11.,0.));
#1720=CARTESIAN_POINT('',(12.5529555009979,32.2089584448938,88.));
#1721=CARTESIAN_POINT('',(12.5529555009979,32.2089584448938,88.));
#1722=CARTESIAN_POINT('',(12.5529555009979,32.2089584448938,0.));
#1723=CARTESIAN_POINT('Origin',(12.5529555009979,32.2089584448938,0.));
#1724=CARTESIAN_POINT('',(12.5529555009979,32.2089584448938,0.));
#1725=CARTESIAN_POINT('',(12.5529555009979,11.,0.));
#1726=CARTESIAN_POINT('Origin',(22.5529555009979,32.2089584448938,0.));
#1727=CARTESIAN_POINT('Origin',(22.5529555009979,32.2089584448938,0.));
#1728=CARTESIAN_POINT('Origin',(22.5529555009979,32.2089584448938,0.));
#1729=CARTESIAN_POINT('Origin',(22.5529555009979,32.2089584448938,0.));
#1730=CARTESIAN_POINT('Origin',(22.5529555009979,32.2089584448938,88.));
#1731=CARTESIAN_POINT('Origin',(22.5529555009979,32.2089584448938,0.));
#1732=CARTESIAN_POINT('Origin',(22.5529555009979,32.2089584448938,0.));
#1733=CARTESIAN_POINT('',(18.5529555009979,32.2089584448938,0.));
#1734=CARTESIAN_POINT('',(18.5529555009979,32.2089584448938,0.));
#1735=CARTESIAN_POINT('Origin',(22.5529555009979,32.2089584448938,0.));
#1736=CARTESIAN_POINT('Origin',(22.5529555009979,32.2089584448938,0.));
#1737=CARTESIAN_POINT('',(18.5529555009979,32.2089584448938,0.));
#1738=CARTESIAN_POINT('Origin',(22.5529555009979,32.2089584448938,0.));
#1739=CARTESIAN_POINT('',(18.5529555009979,32.2089584448938,88.));
#1740=CARTESIAN_POINT('Origin',(22.5529555009979,32.2089584448938,88.));
#1741=CARTESIAN_POINT('',(18.5529555009979,32.2089584448938,0.));
#1742=CARTESIAN_POINT('Origin',(-22.5131568759615,-11.,81.));
#1743=CARTESIAN_POINT('',(7.55295550099791,11.,81.));
#1744=CARTESIAN_POINT('',(0.,11.,81.));
#1745=CARTESIAN_POINT('',(-4.98010068748182,11.,81.));
#1746=CARTESIAN_POINT('',(7.55295550099791,-11.,81.));
#1747=CARTESIAN_POINT('Origin',(0.,0.,81.));
#1748=CARTESIAN_POINT('',(-6.,7.34788079488412E-16,81.));
#1749=CARTESIAN_POINT('Origin',(0.,0.,81.));
#1750=CARTESIAN_POINT('Origin',(7.55295550099791,-11.,52.5));
#1751=CARTESIAN_POINT('',(0.,11.,52.5));
#1752=CARTESIAN_POINT('',(7.55295550099791,11.,52.5));
#1753=CARTESIAN_POINT('',(10.0529555009979,11.,52.5));
#1754=CARTESIAN_POINT('Origin',(0.,0.,52.5));
#1755=CARTESIAN_POINT('',(7.55295550099791,-11.,52.5));
#1756=CARTESIAN_POINT('',(-6.,-7.34788079488412E-16,52.5));
#1757=CARTESIAN_POINT('Origin',(0.,0.,52.5));
#1758=CARTESIAN_POINT('Origin',(7.55295550099791,-11.,81.));
#1759=CARTESIAN_POINT('',(7.55295550099791,11.,40.5));
#1760=CARTESIAN_POINT('Origin',(-22.0685766589217,-11.,35.5));
#1761=CARTESIAN_POINT('',(7.55295550099791,11.,35.5));
#1762=CARTESIAN_POINT('',(0.,11.,35.5));
#1763=CARTESIAN_POINT('',(-4.75781057896191,11.,35.5));
#1764=CARTESIAN_POINT('',(7.55295550099791,-11.,35.5));
#1765=CARTESIAN_POINT('Origin',(0.,0.,35.5));
#1766=CARTESIAN_POINT('',(-6.,7.34788079488412E-16,35.5));
#1767=CARTESIAN_POINT('Origin',(0.,0.,35.5));
#1768=CARTESIAN_POINT('Origin',(7.55295550099791,-11.,7.));
#1769=CARTESIAN_POINT('',(0.,11.,7.));
#1770=CARTESIAN_POINT('',(7.55295550099791,11.,7.));
#1771=CARTESIAN_POINT('',(10.0529555009979,11.,7.));
#1772=CARTESIAN_POINT('Origin',(0.,0.,7.));
#1773=CARTESIAN_POINT('',(7.55295550099791,-11.,7.));
#1774=CARTESIAN_POINT('',(-6.,-7.34788079488412E-16,7.));
#1775=CARTESIAN_POINT('Origin',(0.,0.,7.));
#1776=CARTESIAN_POINT('Origin',(7.55295550099791,-11.,35.5));
#1777=CARTESIAN_POINT('',(7.55295550099791,11.,17.75));
#1778=CARTESIAN_POINT('Origin',(0.,0.,0.));
#1779=CARTESIAN_POINT('',(0.,11.,0.));
#1780=CARTESIAN_POINT('',(0.,11.,0.));
#1781=CARTESIAN_POINT('Origin',(0.,0.,0.));
#1782=CARTESIAN_POINT('Origin',(0.,0.,0.));
#1783=CARTESIAN_POINT('',(0.,11.,0.));
#1784=CARTESIAN_POINT('Origin',(0.,0.,0.));
#1785=CARTESIAN_POINT('',(0.,11.,88.));
#1786=CARTESIAN_POINT('Origin',(0.,0.,88.));
#1787=CARTESIAN_POINT('',(0.,11.,0.));
#1788=CARTESIAN_POINT('Origin',(0.,0.,0.));
#1789=CARTESIAN_POINT('',(-6.,-7.34788079488412E-16,0.));
#1790=CARTESIAN_POINT('Origin',(0.,0.,0.));
#1791=CARTESIAN_POINT('',(-6.,0.,88.));
#1792=CARTESIAN_POINT('Origin',(0.,0.,88.));
#1793=CARTESIAN_POINT('',(-6.,-7.34788079488412E-16,0.));
#1794=CARTESIAN_POINT('Origin',(0.,0.,0.));
#1795=CARTESIAN_POINT('',(-6.,-7.34788079488412E-16,0.));
#1796=CARTESIAN_POINT('',(-6.,-7.34788079488412E-16,0.));
#1797=CARTESIAN_POINT('Origin',(0.,0.,0.));
#1798=CARTESIAN_POINT('Origin',(22.5529555009979,32.2089584448938,0.));
#1799=CARTESIAN_POINT('',(18.5529555009979,32.2089584448938,0.));
#1800=CARTESIAN_POINT('Origin',(42.5529555511917,-6.,0.));
#1801=CARTESIAN_POINT('',(42.5529555511987,42.2089584448938,0.));
#1802=CARTESIAN_POINT('',(42.5529555511987,42.2089584448938,88.));
#1803=CARTESIAN_POINT('Origin',(102.045714551192,-7.99999999999997,0.));
#1804=CARTESIAN_POINT('',(102.045714551192,-5.99999999999997,0.));
#1805=CARTESIAN_POINT('Origin',(12.5529555009979,11.,0.));
#1806=CARTESIAN_POINT('',(0.,11.,88.));
#1807=CARTESIAN_POINT('',(0.,11.,0.));
#1808=CARTESIAN_POINT('Origin',(45.5228572755958,15.6044792224469,88.));
#1809=CARTESIAN_POINT('Origin',(45.5228572755958,15.6044792224469,0.));
#1810=UNCERTAINTY_MEASURE_WITH_UNIT(LENGTH_MEASURE(0.01),#1814,
'DISTANCE_ACCURACY_VALUE',
'Maximum model space distance between geometric entities at asserted c
onnectivities');
#1811=UNCERTAINTY_MEASURE_WITH_UNIT(LENGTH_MEASURE(0.01),#1814,
'DISTANCE_ACCURACY_VALUE',
'Maximum model space distance between geometric entities at asserted c
onnectivities');
#1812=(
GEOMETRIC_REPRESENTATION_CONTEXT(3)
GLOBAL_UNCERTAINTY_ASSIGNED_CONTEXT((#1810))
GLOBAL_UNIT_ASSIGNED_CONTEXT((#1814,#1816,#1817))
REPRESENTATION_CONTEXT('','3D')
);
#1813=(
GEOMETRIC_REPRESENTATION_CONTEXT(3)
GLOBAL_UNCERTAINTY_ASSIGNED_CONTEXT((#1811))
GLOBAL_UNIT_ASSIGNED_CONTEXT((#1814,#1816,#1817))
REPRESENTATION_CONTEXT('','3D')
);
#1814=(
LENGTH_UNIT()
NAMED_UNIT(*)
SI_UNIT(.MILLI.,.METRE.)
);
#1815=(
LENGTH_UNIT()
NAMED_UNIT(*)
SI_UNIT($,.METRE.)
);
#1816=(
NAMED_UNIT(*)
PLANE_ANGLE_UNIT()
SI_UNIT($,.RADIAN.)
);
#1817=(
NAMED_UNIT(*)
SI_UNIT($,.STERADIAN.)
SOLID_ANGLE_UNIT()
);
#1818=SHAPE_DEFINITION_REPRESENTATION(#1819,#1820);
#1819=PRODUCT_DEFINITION_SHAPE('',$,#1822);
#1820=SHAPE_REPRESENTATION('',(#1110),#1812);
#1821=PRODUCT_DEFINITION_CONTEXT('part definition',#1826,'design');
#1822=PRODUCT_DEFINITION('Capsule-Side Bracket',
'Capsule-Side Bracket v1',#1823,#1821);
#1823=PRODUCT_DEFINITION_FORMATION('',$,#1828);
#1824=PRODUCT_RELATED_PRODUCT_CATEGORY('Capsule-Side Bracket v1',
'Capsule-Side Bracket v1',(#1828));
#1825=APPLICATION_PROTOCOL_DEFINITION('international standard',
'automotive_design',2009,#1826);
#1826=APPLICATION_CONTEXT(
'Core Data for Automotive Mechanical Design Process');
#1827=PRODUCT_CONTEXT('part definition',#1826,'mechanical');
#1828=PRODUCT('Capsule-Side Bracket','Capsule-Side Bracket v1',$,(#1827));
#1829=PRESENTATION_STYLE_ASSIGNMENT((#1830));
#1830=SURFACE_STYLE_USAGE(.BOTH.,#1831);
#1831=SURFACE_SIDE_STYLE('',(#1832));
#1832=SURFACE_STYLE_FILL_AREA(#1833);
#1833=FILL_AREA_STYLE('Stainless Steel - Medium',(#1834));
#1834=FILL_AREA_STYLE_COLOUR('Stainless Steel - Medium',#1835);
#1835=COLOUR_RGB('Stainless Steel - Medium',0.701960784313725,0.698039215686274,
0.698039215686274);
ENDSEC;
END-ISO-10303-21;
