0.0009537099279504113
0.011391035783326299
0.0028059042693112657
7.0037325830708404e-06
0.00016563292391460316
0.002057467024752801
8.018842493022824e-05
0.0019422362418576795
7.166711988128107e-06
0.009582911847196111
0.005379404071339358
0.002925883921377868
2.2346211106124524e-05
9.473536734285947e-06
0.02334738709191864
0.004826046477531754
0.004406434801998708
0.004820678046269444
0.006038263527471127
8.742765373429841e-06
0.0021452979792358725
0.02475728350654419
7.843706855009642e-05
0.0007011933504098938
0.0041747926089215565
0.0001154248737239329
0.0008059603476819278
7.0351992844483646e-06
0.0023338817816402225
0.02139536057757695
0.01605708438928689
0.0002778292824272349
0.0075054462270666734
0.03387105292402572
0.003933338127422099
0.03312670383079562
0.00477687965370281
0.0007593831114325227
0.0025120352329804497
0.0020016790855709103
0.0015451493906427085
0.0012090417883543387
0.001371330229244815
0.0018021150813421572
0.005596188592100215
0.006801337220706903
0.007736477620208192
0.0016276777100980835
0.001306495299273152
0.002036484827660189
