210.219498
171.50885
204.475143
194.862335
199.683014
184.595627
143.059708
208.482224
212.816467
148.56839
203.672394
212.092743
197.482117
156.156525
190.922775
218.612839
213.886887
216.677628
226.766113
144.48114
182.378448
222.003479
210.23349
120.018318
174.694427
197.196259
207.525787
203.757019
229.18074
202.879715
181.803482
197.704269
202.644745
226.214447
132.927567
165.124466
134.226715
191.494492
144.934509
205.399506
137.944748
172.119263
157.75351
209.996201
202.761841
205.750259
195.878357
208.595978
193.717682
202.061966
