2.271113
6.480325
2.131216
2.715692
4.769195
3.548351
2.917015
3.372931
2.227868
2.629213
2.496334
4.30885
3.096565
1.978702
3.27386
4.846403
3.557374
1.783891
1.664078
3.49259
2.347832
2.870378
2.861778
2.011272
4.264853
3.097959
2.726386
5.715971
2.113984
2.596175
6.204134
4.775297
2.965388
4.932198
3.903662
2.270606
1.544595
2.728737
3.57729
2.622269
3.794044
4.531541
3.324024
5.001961
3.845758
2.58606
2.77048
2.854639
2.643678
4.664139
