0.106044
0.106044
0.079955
0.079955
0.073442
0.073442
0.056082
0.056082
0.052168
0.052168
0.162524
0.185362
0.197257
0.036584
0.067114
0.247139
0.087333
0.126554
0.168701
0.046731
0.070398
0.07772
0.176128
0.070257
0.169047
0.142468
0.078727
0.068111
0.059186
0.08366
0.069632
0.07247
0.252975
0.077757
0.105113
0.090555
0.070942
0.126048
0.077233
0.079569
0.094149
0.158505
0.067209
0.145869
0.071749
0.06661
0.153597
0.042444
0.079581
0.125891
