2.040257
1.658216
1.82048
1.407166
0.810424
1.917021
1.878743
1.748895
0.084533
1.632183
1.019355
1.37078
1.790105
1.931028
0.449926
1.682096
2.026214
1.681241
0.3533
1.76121
0.004181
1.64582
0.143012
1.491156
0.554211
1.507478
2.047767
0.479286
2.444277
1.599271
2.019666
2.208663
2.014298
1.849445
0.512017
1.788097
0.81671
2.558849
2.253748
1.516525
1.566051
2.243265
1.631812
1.447094
0.895652
1.909456
1.378403
2.173408
2.18857
0.45866
