136.436295
150.382721
146.344925
137.194275
135.528061
152.743332
118.386772
92.312332
133.659393
93.51239
154.740509
57.230701
57.254013
154.512741
69.527977
77.432449
83.359978
87.735939
122.947769
82.16835
59.465336
151.712402
138.803436
128.539597
70.606415
131.140228
154.369843
150.667923
123.785538
151.365036
91.365944
96.523933
124.487885
143.643799
138.759903
127.905411
147.351517
118.533699
110.963692
114.653603
151.440598
110.557861
146.40712
139.688828
140.547028
126.438644
155.026672
155.118774
95.013832
124.414848
